%!PS-Adobe-3.0
%%Creator: PCBNEW
%%CreationDate: Sat Nov 15 14:30:08 2014
%%Title: d:\Users\Pila\Desktop\kicad radar miniz\mini-z-speedmeter-Dessous_Cu.ps
%%Pages: 1
%%PageOrder: Ascend
%%BoundingBox: 0 0 596 842
%%DocumentMedia: A4 595 842 0 () ()
%%Orientation: Landscape
%%EndComments
%%BeginProlog
/line { newpath moveto lineto stroke } bind def
/cir0 { newpath 0 360 arc stroke } bind def
/cir1 { newpath 0 360 arc gsave fill grestore stroke } bind def
/cir2 { newpath 0 360 arc gsave fill grestore stroke } bind def
/arc0 { newpath arc stroke } bind def
/arc1 { newpath 4 index 4 index moveto arc closepath gsave fill
    grestore stroke } bind def
/arc2 { newpath 4 index 4 index moveto arc closepath gsave fill
    grestore stroke } bind def
/poly0 { stroke } bind def
/poly1 { closepath gsave fill grestore stroke } bind def
/poly2 { closepath gsave fill grestore stroke } bind def
/rect0 { rectstroke } bind def
/rect1 { rectfill } bind def
/rect2 { rectfill } bind def
/linemode0 { 0 setlinecap 0 setlinejoin 0 setlinewidth } bind def
/linemode1 { 1 setlinecap 1 setlinejoin } bind def
/dashedline { [200] 100 setdash } bind def
/solidline { [] 0 setdash } bind def
/phantomshow { moveto
    /KicadFont findfont 0.000001 scalefont setfont
    show } bind def
/textshow { gsave
    findfont exch scalefont setfont concat 1 scale 0 0 moveto show
    } bind def
/reencodefont {
  findfont dup length dict begin
  { 1 index /FID ne
    { def }
    { pop pop } ifelse
  } forall
  /Encoding ISOLatin1Encoding def
  currentdict
  end } bind def
/KicadFont /Helvetica reencodefont definefont pop
/KicadFont-Bold /Helvetica-Bold reencodefont definefont pop
/KicadFont-Oblique /Helvetica-Oblique reencodefont definefont pop
/KicadFont-BoldOblique /Helvetica-BoldOblique reencodefont definefont pop
%%EndProlog
%%Page: 1 1
%%BeginPageSetup
gsave
0.0072 0.0072 scale
linemode1
82680 0 translate 90 rotate
59.0551 setlinewidth
%%EndPageSetup
0 0 0 setrgbcolor
0 0 0 setrgbcolor
167.323 setlinewidth
(v1 Coagul) 46500 63930 phantomshow
newpath
46404.4 64105.3 moveto
46245 63659.1 lineto
46085.7 64105.3 lineto
stroke
newpath
45480.1 63659.1 moveto
45862.6 63659.1 lineto
stroke
newpath
45671.4 63659.1 moveto
45671.4 64328.4 lineto
45735.1 64232.8 lineto
45798.8 64169 lineto
45862.6 64137.2 lineto
stroke
newpath
44300.9 63722.8 moveto
44332.8 63691 lineto
44428.4 63659.1 lineto
44492.1 63659.1 lineto
44587.7 63691 lineto
44651.5 63754.7 lineto
44683.4 63818.5 lineto
44715.2 63945.9 lineto
44715.2 64041.5 lineto
44683.4 64169 lineto
44651.5 64232.8 lineto
44587.7 64296.5 lineto
44492.1 64328.4 lineto
44428.4 64328.4 lineto
44332.8 64296.5 lineto
44300.9 64264.6 lineto
stroke
newpath
43918.4 63659.1 moveto
43982.2 63691 lineto
44014.1 63722.8 lineto
44045.9 63786.6 lineto
44045.9 63977.8 lineto
44014.1 64041.5 lineto
43982.2 64073.4 lineto
43918.4 64105.3 lineto
43822.8 64105.3 lineto
43759.1 64073.4 lineto
43727.2 64041.5 lineto
43695.4 63977.8 lineto
43695.4 63786.6 lineto
43727.2 63722.8 lineto
43759.1 63691 lineto
43822.8 63659.1 lineto
43918.4 63659.1 lineto
stroke
newpath
43121.7 63659.1 moveto
43121.7 64009.7 lineto
43153.5 64073.4 lineto
43217.3 64105.3 lineto
43344.8 64105.3 lineto
43408.5 64073.4 lineto
stroke
newpath
43121.7 63691 moveto
43185.4 63659.1 lineto
43344.8 63659.1 lineto
43408.5 63691 lineto
43440.4 63754.7 lineto
43440.4 63818.5 lineto
43408.5 63882.2 lineto
43344.8 63914.1 lineto
43185.4 63914.1 lineto
43121.7 63945.9 lineto
stroke
newpath
42516.1 64105.3 moveto
42516.1 63563.5 lineto
42548 63499.7 lineto
42579.9 63467.9 lineto
42643.6 63436 lineto
42739.2 63436 lineto
42803 63467.9 lineto
stroke
newpath
42516.1 63691 moveto
42579.9 63659.1 lineto
42707.3 63659.1 lineto
42771.1 63691 lineto
42803 63722.8 lineto
42834.8 63786.6 lineto
42834.8 63977.8 lineto
42803 64041.5 lineto
42771.1 64073.4 lineto
42707.3 64105.3 lineto
42579.9 64105.3 lineto
42516.1 64073.4 lineto
stroke
newpath
41910.6 64105.3 moveto
41910.6 63659.1 lineto
stroke
newpath
42197.4 64105.3 moveto
42197.4 63754.7 lineto
42165.5 63691 lineto
42101.8 63659.1 lineto
42006.2 63659.1 lineto
41942.4 63691 lineto
41910.6 63722.8 lineto
stroke
newpath
41496.3 63659.1 moveto
41560 63691 lineto
41591.9 63754.7 lineto
41591.9 64328.4 lineto
stroke
(2014 Pila) 46500 62825.7 phantomshow
newpath
46372.5 63160.3 moveto
46340.6 63192.2 lineto
46276.9 63224.1 lineto
46117.5 63224.1 lineto
46053.8 63192.2 lineto
46021.9 63160.3 lineto
45990.1 63096.6 lineto
45990.1 63032.8 lineto
46021.9 62937.2 lineto
46404.4 62554.8 lineto
45990.1 62554.8 lineto
stroke
newpath
45575.7 63224.1 moveto
45512 63224.1 lineto
45448.3 63192.2 lineto
45416.4 63160.3 lineto
45384.5 63096.6 lineto
45352.6 62969.1 lineto
45352.6 62809.7 lineto
45384.5 62682.2 lineto
45416.4 62618.5 lineto
45448.3 62586.6 lineto
45512 62554.8 lineto
45575.7 62554.8 lineto
45639.5 62586.6 lineto
45671.4 62618.5 lineto
45703.2 62682.2 lineto
45735.1 62809.7 lineto
45735.1 62969.1 lineto
45703.2 63096.6 lineto
45671.4 63160.3 lineto
45639.5 63192.2 lineto
45575.7 63224.1 lineto
stroke
newpath
44715.2 62554.8 moveto
45097.7 62554.8 lineto
stroke
newpath
44906.4 62554.8 moveto
44906.4 63224.1 lineto
44970.2 63128.4 lineto
45033.9 63064.7 lineto
45097.7 63032.8 lineto
stroke
newpath
44141.5 63001 moveto
44141.5 62554.8 lineto
stroke
newpath
44300.9 63255.9 moveto
44460.3 62777.9 lineto
44045.9 62777.9 lineto
stroke
newpath
43281 62554.8 moveto
43281 63224.1 lineto
43026.1 63224.1 lineto
42962.3 63192.2 lineto
42930.4 63160.3 lineto
42898.6 63096.6 lineto
42898.6 63001 lineto
42930.4 62937.2 lineto
42962.3 62905.3 lineto
43026.1 62873.5 lineto
43281 62873.5 lineto
stroke
newpath
42611.7 62554.8 moveto
42611.7 63001 lineto
stroke
newpath
42611.7 63224.1 moveto
42643.6 63192.2 lineto
42611.7 63160.3 lineto
42579.9 63192.2 lineto
42611.7 63224.1 lineto
42611.7 63160.3 lineto
stroke
newpath
42197.4 62554.8 moveto
42261.2 62586.6 lineto
42293 62650.4 lineto
42293 63224.1 lineto
stroke
newpath
41655.6 62554.8 moveto
41655.6 62905.3 lineto
41687.5 62969.1 lineto
41751.2 63001 lineto
41878.7 63001 lineto
41942.4 62969.1 lineto
stroke
newpath
41655.6 62586.6 moveto
41719.3 62554.8 lineto
41878.7 62554.8 lineto
41942.4 62586.6 lineto
41974.3 62650.4 lineto
41974.3 62714.1 lineto
41942.4 62777.9 lineto
41878.7 62809.7 lineto
41719.3 62809.7 lineto
41655.6 62841.6 lineto
stroke
0 0 0 setrgbcolor
(SpeedMeter) 26500 72680 phantomshow
newpath
26739 72552.5 moveto
26770.9 72456.9 lineto
26770.9 72297.5 lineto
26739 72233.8 lineto
26707.2 72201.9 lineto
26643.4 72170.1 lineto
26579.7 72170.1 lineto
26515.9 72201.9 lineto
26484.1 72233.8 lineto
26452.2 72297.5 lineto
26420.3 72425 lineto
26388.5 72488.8 lineto
26356.6 72520.6 lineto
26292.8 72552.5 lineto
26229.1 72552.5 lineto
26165.4 72520.6 lineto
26133.5 72488.8 lineto
26101.6 72425 lineto
26101.6 72265.7 lineto
26133.5 72170.1 lineto
stroke
newpath
26324.7 71883.2 moveto
26994 71883.2 lineto
stroke
newpath
26356.6 71883.2 moveto
26324.7 71819.5 lineto
26324.7 71692 lineto
26356.6 71628.3 lineto
26388.5 71596.4 lineto
26452.2 71564.5 lineto
26643.4 71564.5 lineto
26707.2 71596.4 lineto
26739 71628.3 lineto
26770.9 71692 lineto
26770.9 71819.5 lineto
26739 71883.2 lineto
stroke
newpath
26739 71022.7 moveto
26770.9 71086.4 lineto
26770.9 71213.9 lineto
26739 71277.7 lineto
26675.3 71309.5 lineto
26420.3 71309.5 lineto
26356.6 71277.7 lineto
26324.7 71213.9 lineto
26324.7 71086.4 lineto
26356.6 71022.7 lineto
26420.3 70990.8 lineto
26484.1 70990.8 lineto
26547.8 71309.5 lineto
stroke
newpath
26739 70449 moveto
26770.9 70512.8 lineto
26770.9 70640.3 lineto
26739 70704 lineto
26675.3 70735.9 lineto
26420.3 70735.9 lineto
26356.6 70704 lineto
26324.7 70640.3 lineto
26324.7 70512.8 lineto
26356.6 70449 lineto
26420.3 70417.2 lineto
26484.1 70417.2 lineto
26547.8 70735.9 lineto
stroke
newpath
26770.9 69843.5 moveto
26101.6 69843.5 lineto
stroke
newpath
26739 69843.5 moveto
26770.9 69907.2 lineto
26770.9 70034.7 lineto
26739 70098.4 lineto
26707.2 70130.3 lineto
26643.4 70162.2 lineto
26452.2 70162.2 lineto
26388.5 70130.3 lineto
26356.6 70098.4 lineto
26324.7 70034.7 lineto
26324.7 69907.2 lineto
26356.6 69843.5 lineto
stroke
newpath
26770.9 69524.8 moveto
26101.6 69524.8 lineto
26579.7 69301.7 lineto
26101.6 69078.6 lineto
26770.9 69078.6 lineto
stroke
newpath
26739 68504.9 moveto
26770.9 68568.6 lineto
26770.9 68696.1 lineto
26739 68759.9 lineto
26675.3 68791.7 lineto
26420.3 68791.7 lineto
26356.6 68759.9 lineto
26324.7 68696.1 lineto
26324.7 68568.6 lineto
26356.6 68504.9 lineto
26420.3 68473 lineto
26484.1 68473 lineto
26547.8 68791.7 lineto
stroke
newpath
26324.7 68281.8 moveto
26324.7 68026.8 lineto
stroke
newpath
26101.6 68186.2 moveto
26675.3 68186.2 lineto
26739 68154.3 lineto
26770.9 68090.6 lineto
26770.9 68026.8 lineto
stroke
newpath
26739 67548.8 moveto
26770.9 67612.5 lineto
26770.9 67740 lineto
26739 67803.7 lineto
26675.3 67835.6 lineto
26420.3 67835.6 lineto
26356.6 67803.7 lineto
26324.7 67740 lineto
26324.7 67612.5 lineto
26356.6 67548.8 lineto
26420.3 67516.9 lineto
26484.1 67516.9 lineto
26547.8 67835.6 lineto
stroke
newpath
26770.9 67230.1 moveto
26324.7 67230.1 lineto
stroke
newpath
26452.2 67230.1 moveto
26388.5 67198.2 lineto
26356.6 67166.3 lineto
26324.7 67102.6 lineto
26324.7 67038.8 lineto
stroke
0 0 0 setrgbcolor
59.0551 setlinewidth
36750 60680 324.803 cir1
0 0 0 setrgbcolor
36750 64680 324.803 cir1
0 0 0 setrgbcolor
33250 60430 324.803 cir1
0 0 0 setrgbcolor
33250 64430 324.803 cir1
0 0 0 setrgbcolor
32250 60430 324.803 cir1
0 0 0 setrgbcolor
32250 64430 324.803 cir1
0 0 0 setrgbcolor
43250 61180 324.803 cir1
0 0 0 setrgbcolor
43250 65180 324.803 cir1
0 0 0 setrgbcolor
44250 61180 324.803 cir1
0 0 0 setrgbcolor
44250 65180 324.803 cir1
0 0 0 setrgbcolor
42250 61180 324.803 cir1
0 0 0 setrgbcolor
42250 65180 324.803 cir1
0 0 0 setrgbcolor
38750 60680 324.803 cir1
0 0 0 setrgbcolor
38750 64680 324.803 cir1
0 0 0 setrgbcolor
37750 60680 324.803 cir1
0 0 0 setrgbcolor
37750 64680 324.803 cir1
0 0 0 setrgbcolor
46250 61180 324.803 cir1
0 0 0 setrgbcolor
46250 65180 324.803 cir1
0 0 0 setrgbcolor
45250 61180 324.803 cir1
0 0 0 setrgbcolor
45250 65180 324.803 cir1
0 0 0 setrgbcolor
newpath
40030.5 59850.5 moveto
40030.5 59009.5 lineto
39469.5 59009.5 lineto
39469.5 59850.5 lineto
40030.5 59850.5 lineto
poly1
0 0 0 setrgbcolor
620 setlinewidth
newpath
38750 59290 moveto
38750 59570 lineto
stroke
0 0 0 setrgbcolor
newpath
37750 59290 moveto
37750 59570 lineto
stroke
0 0 0 setrgbcolor
newpath
36750 59290 moveto
36750 59570 lineto
stroke
0 0 0 setrgbcolor
newpath
35750 59290 moveto
35750 59570 lineto
stroke
0 0 0 setrgbcolor
newpath
34750 59290 moveto
34750 59570 lineto
stroke
0 0 0 setrgbcolor
newpath
33750 59290 moveto
33750 59570 lineto
stroke
0 0 0 setrgbcolor
newpath
32750 59290 moveto
32750 59570 lineto
stroke
0 0 0 setrgbcolor
newpath
31750 59290 moveto
31750 59570 lineto
stroke
0 0 0 setrgbcolor
newpath
31750 56290 moveto
31750 56570 lineto
stroke
0 0 0 setrgbcolor
newpath
32750 56290 moveto
32750 56570 lineto
stroke
0 0 0 setrgbcolor
newpath
33750 56290 moveto
33750 56570 lineto
stroke
0 0 0 setrgbcolor
newpath
34750 56290 moveto
34750 56570 lineto
stroke
0 0 0 setrgbcolor
newpath
35750 56290 moveto
35750 56570 lineto
stroke
0 0 0 setrgbcolor
newpath
36750 56290 moveto
36750 56570 lineto
stroke
0 0 0 setrgbcolor
newpath
37750 56290 moveto
37750 56570 lineto
stroke
0 0 0 setrgbcolor
newpath
38750 56290 moveto
38750 56570 lineto
stroke
0 0 0 setrgbcolor
newpath
39750 56290 moveto
39750 56570 lineto
stroke
0 0 0 setrgbcolor
629.921 setlinewidth
newpath
24750 63067.8 moveto
24750 62792.2 lineto
stroke
0 0 0 setrgbcolor
newpath
25750 63067.8 moveto
25750 62792.2 lineto
stroke
0 0 0 setrgbcolor
newpath
26750 63067.8 moveto
26750 62792.2 lineto
stroke
0 0 0 setrgbcolor
newpath
39000 51278.4 moveto
39000 51081.6 lineto
stroke
0 0 0 setrgbcolor
newpath
40000 51278.4 moveto
40000 51081.6 lineto
stroke
0 0 0 setrgbcolor
59.0551 setlinewidth
30000 59430 324.803 cir1
0 0 0 setrgbcolor
30000 55430 324.803 cir1
0 0 0 setrgbcolor
28000 57430 324.803 cir1
0 0 0 setrgbcolor
28000 59430 324.803 cir1
0 0 0 setrgbcolor
newpath
26285.4 57715.4 moveto
26285.4 57144.6 lineto
25714.6 57144.6 lineto
25714.6 57715.4 lineto
26285.4 57715.4 lineto
poly1
0 0 0 setrgbcolor
newpath
25285.4 57715.4 moveto
25285.4 57144.6 lineto
24714.6 57144.6 lineto
24714.6 57715.4 lineto
25285.4 57715.4 lineto
poly1
0 0 0 setrgbcolor
629.921 setlinewidth
newpath
30362.2 61930 moveto
30637.8 61930 lineto
stroke
0 0 0 setrgbcolor
newpath
30362.2 62930 moveto
30637.8 62930 lineto
stroke
0 0 0 setrgbcolor
newpath
30362.2 63930 moveto
30637.8 63930 lineto
stroke
0 0 0 setrgbcolor
newpath
34862.2 61930 moveto
35137.8 61930 lineto
stroke
0 0 0 setrgbcolor
newpath
34862.2 62930 moveto
35137.8 62930 lineto
stroke
0 0 0 setrgbcolor
newpath
34862.2 63930 moveto
35137.8 63930 lineto
stroke
0 0 0 setrgbcolor
newpath
40362.2 61930 moveto
40637.8 61930 lineto
stroke
0 0 0 setrgbcolor
newpath
40362.2 62930 moveto
40637.8 62930 lineto
stroke
0 0 0 setrgbcolor
newpath
40362.2 63930 moveto
40637.8 63930 lineto
stroke
0 0 0 setrgbcolor
newpath
32500 53792.2 moveto
32500 54067.8 lineto
stroke
0 0 0 setrgbcolor
newpath
31500 53792.2 moveto
31500 54067.8 lineto
stroke
0 0 0 setrgbcolor
newpath
30500 53792.2 moveto
30500 54067.8 lineto
stroke
0 0 0 setrgbcolor
newpath
32500 51042.2 moveto
32500 51317.8 lineto
stroke
0 0 0 setrgbcolor
newpath
31500 51042.2 moveto
31500 51317.8 lineto
stroke
0 0 0 setrgbcolor
newpath
30500 51042.2 moveto
30500 51317.8 lineto
stroke
0 0 0 setrgbcolor
59.0551 setlinewidth
27000 58430 324.803 cir1
0 0 0 setrgbcolor
27000 57430 324.803 cir1
0 0 0 setrgbcolor
25750 65680 561.024 cir1
0 0 0 setrgbcolor
29000 56430 324.803 cir1
0 0 0 setrgbcolor
29000 60430 324.803 cir1
0 0 0 setrgbcolor
24500 75680 770.472 cir1
0 0 0 setrgbcolor
46500 75680 770.472 cir1
0 0 0 setrgbcolor
35500 50180 770.472 cir1
0 0 0 setrgbcolor
27250 52480 324.803 cir1
0 0 0 setrgbcolor
27250 53480 324.803 cir1
0 0 0 setrgbcolor
27250 51480 324.803 cir1
0 0 0 setrgbcolor
28250 53980 324.803 cir1
0 0 0 setrgbcolor
28250 52980 324.803 cir1
0 0 0 setrgbcolor
28250 51980 324.803 cir1
0 0 0 setrgbcolor
24800 50730 560.972 cir1
0 0 0 setrgbcolor
24800 54730 560.972 cir1
0 0 0 setrgbcolor
43750 52880 324.803 cir1
0 0 0 setrgbcolor
43750 51880 324.803 cir1
0 0 0 setrgbcolor
43750 53880 324.803 cir1
0 0 0 setrgbcolor
42750 51380 324.803 cir1
0 0 0 setrgbcolor
42750 52380 324.803 cir1
0 0 0 setrgbcolor
42750 53380 324.803 cir1
0 0 0 setrgbcolor
46200 54630 560.972 cir1
0 0 0 setrgbcolor
46200 50630 560.972 cir1
0 0 0 setrgbcolor
27750 68430 324.803 cir1
0 0 0 setrgbcolor
28750 68430 324.803 cir1
0 0 0 setrgbcolor
29750 68430 324.803 cir1
0 0 0 setrgbcolor
30750 68430 324.803 cir1
0 0 0 setrgbcolor
28750 74430 324.803 cir1
0 0 0 setrgbcolor
27750 74430 324.803 cir1
0 0 0 setrgbcolor
31750 68430 324.803 cir1
0 0 0 setrgbcolor
30750 74430 324.803 cir1
0 0 0 setrgbcolor
31750 74430 324.803 cir1
0 0 0 setrgbcolor
29750 74430 324.803 cir1
0 0 0 setrgbcolor
32750 68430 324.803 cir1
0 0 0 setrgbcolor
33750 68430 324.803 cir1
0 0 0 setrgbcolor
34750 68430 324.803 cir1
0 0 0 setrgbcolor
35750 68430 324.803 cir1
0 0 0 setrgbcolor
33750 74430 324.803 cir1
0 0 0 setrgbcolor
32750 74430 324.803 cir1
0 0 0 setrgbcolor
36750 68430 324.803 cir1
0 0 0 setrgbcolor
35750 74430 324.803 cir1
0 0 0 setrgbcolor
36750 74430 324.803 cir1
0 0 0 setrgbcolor
34750 74430 324.803 cir1
0 0 0 setrgbcolor
37750 68430 324.803 cir1
0 0 0 setrgbcolor
38750 68430 324.803 cir1
0 0 0 setrgbcolor
39750 68430 324.803 cir1
0 0 0 setrgbcolor
40750 68430 324.803 cir1
0 0 0 setrgbcolor
38750 74430 324.803 cir1
0 0 0 setrgbcolor
37750 74430 324.803 cir1
0 0 0 setrgbcolor
41750 68430 324.803 cir1
0 0 0 setrgbcolor
40750 74430 324.803 cir1
0 0 0 setrgbcolor
41750 74430 324.803 cir1
0 0 0 setrgbcolor
39750 74430 324.803 cir1
0 0 0 setrgbcolor
38750 71680 324.803 cir1
0 0 0 setrgbcolor
38750 73680 324.803 cir1
0 0 0 setrgbcolor
33750 71680 324.803 cir1
0 0 0 setrgbcolor
33750 73680 324.803 cir1
0 0 0 setrgbcolor
28750 65430 324.803 cir1
0 0 0 setrgbcolor
31750 65430 324.803 cir1
0 0 0 setrgbcolor
38750 65430 324.803 cir1
0 0 0 setrgbcolor
33750 65430 324.803 cir1
0 0 0 setrgbcolor
35750 66430 324.803 cir1
0 0 0 setrgbcolor
37750 66430 324.803 cir1
0 0 0 setrgbcolor
40750 66430 324.803 cir1
0 0 0 setrgbcolor
32750 66430 324.803 cir1
0 0 0 setrgbcolor
27750 67430 324.803 cir1
0 0 0 setrgbcolor
31750 67430 324.803 cir1
0 0 0 setrgbcolor
41750 67430 324.803 cir1
0 0 0 setrgbcolor
37750 67430 324.803 cir1
0 0 0 setrgbcolor
36750 67430 324.803 cir1
0 0 0 setrgbcolor
32750 67430 324.803 cir1
0 0 0 setrgbcolor
37750 70680 324.803 cir1
0 0 0 setrgbcolor
37750 73680 324.803 cir1
0 0 0 setrgbcolor
32750 70680 324.803 cir1
0 0 0 setrgbcolor
32750 73680 324.803 cir1
0 0 0 setrgbcolor
24750 61930 324.803 cir1
0 0 0 setrgbcolor
29000 61930 324.803 cir1
0 0 0 setrgbcolor
41250 52930 324.803 cir1
0 0 0 setrgbcolor
41250 61930 324.803 cir1
0 0 0 setrgbcolor
393.701 setlinewidth
newpath
36750 60680 moveto
35500 60680 lineto
stroke
0 0 0 setrgbcolor
newpath
34750 59930 moveto
34750 59430 lineto
stroke
0 0 0 setrgbcolor
newpath
35500 60680 moveto
34750 59930 lineto
stroke
0 0 0 setrgbcolor
newpath
33750 59430 moveto
33750 59930 lineto
stroke
0 0 0 setrgbcolor
newpath
33750 59930 moveto
33250 60430 lineto
stroke
0 0 0 setrgbcolor
newpath
32250 60430 moveto
32250 60180 lineto
stroke
0 0 0 setrgbcolor
newpath
32750 59680 moveto
32750 59430 lineto
stroke
0 0 0 setrgbcolor
newpath
32250 60180 moveto
32750 59680 lineto
stroke
0 0 0 setrgbcolor
newpath
45250 61180 moveto
45250 60180 lineto
stroke
0 0 0 setrgbcolor
newpath
45250 60180 moveto
40500 55430 lineto
stroke
0 0 0 setrgbcolor
newpath
40500 55430 moveto
38250 55430 lineto
stroke
0 0 0 setrgbcolor
newpath
38250 55430 moveto
37750 55930 lineto
stroke
0 0 0 setrgbcolor
newpath
37750 55930 moveto
37750 56430 lineto
stroke
0 0 0 setrgbcolor
newpath
46250 61180 moveto
46250 59930 lineto
stroke
0 0 0 setrgbcolor
newpath
36750 55680 moveto
37750 54680 lineto
stroke
0 0 0 setrgbcolor
newpath
37750 54680 moveto
41000 54680 lineto
stroke
0 0 0 setrgbcolor
newpath
41000 54680 moveto
46250 59930 lineto
stroke
0 0 0 setrgbcolor
newpath
36750 55680 moveto
36750 56430 lineto
stroke
0 0 0 setrgbcolor
newpath
37750 60680 moveto
37750 59430 lineto
stroke
0 0 0 setrgbcolor
newpath
38750 60680 moveto
38750 59430 lineto
stroke
0 0 0 setrgbcolor
newpath
31750 56430 moveto
29000 56430 lineto
stroke
0 0 0 setrgbcolor
newpath
42250 61180 moveto
42250 60930 lineto
stroke
0 0 0 setrgbcolor
newpath
40750 59430 moveto
39750 59430 lineto
stroke
0 0 0 setrgbcolor
newpath
42250 60930 moveto
40750 59430 lineto
stroke
0 0 0 setrgbcolor
newpath
44250 61180 moveto
44250 60430 lineto
stroke
0 0 0 setrgbcolor
newpath
44250 60430 moveto
40250 56430 lineto
stroke
0 0 0 setrgbcolor
newpath
40250 56430 moveto
39750 56430 lineto
stroke
0 0 0 setrgbcolor
newpath
43250 61180 moveto
43250 60680 lineto
stroke
0 0 0 setrgbcolor
newpath
40000 57430 moveto
39250 57430 lineto
stroke
0 0 0 setrgbcolor
newpath
39250 57430 moveto
38750 56930 lineto
stroke
0 0 0 setrgbcolor
newpath
38750 56930 moveto
38750 56430 lineto
stroke
0 0 0 setrgbcolor
newpath
43250 60680 moveto
40000 57430 lineto
stroke
0 0 0 setrgbcolor
500 setlinewidth
newpath
43750 52880 moveto
44700 52880 lineto
stroke
0 0 0 setrgbcolor
newpath
44700 52880 moveto
44750 52930 lineto
stroke
0 0 0 setrgbcolor
newpath
26750 62930 moveto
26750 63430 lineto
stroke
0 0 0 setrgbcolor
393.701 setlinewidth
newpath
26750 62930 moveto
26750 60680 lineto
stroke
0 0 0 setrgbcolor
newpath
26750 60680 moveto
28000 59430 lineto
stroke
0 0 0 setrgbcolor
newpath
28000 59430 moveto
28000 59430 lineto
stroke
0 0 0 setrgbcolor
newpath
28750 59430 moveto
28000 59430 lineto
stroke
0 0 0 setrgbcolor
newpath
35100 58530 moveto
29650 58530 lineto
stroke
0 0 0 setrgbcolor
newpath
35250 58680 moveto
35100 58530 lineto
stroke
0 0 0 setrgbcolor
newpath
35750 59430 moveto
35750 59180 lineto
stroke
0 0 0 setrgbcolor
newpath
35750 59180 moveto
35250 58680 lineto
stroke
0 0 0 setrgbcolor
newpath
29650 58530 moveto
28750 59430 lineto
stroke
0 0 0 setrgbcolor
newpath
28750 59430 moveto
28800 59380 lineto
stroke
0 0 0 setrgbcolor
newpath
31750 59430 moveto
30000 59430 lineto
stroke
0 0 0 setrgbcolor
newpath
25750 59680 moveto
27000 58430 lineto
stroke
0 0 0 setrgbcolor
newpath
25750 62930 moveto
25750 59680 lineto
stroke
0 0 0 setrgbcolor
newpath
27000 58430 moveto
27500 58430 lineto
stroke
0 0 0 setrgbcolor
newpath
27500 58430 moveto
28550 58430 lineto
stroke
0 0 0 setrgbcolor
314.961 setlinewidth
newpath
35500 57930 moveto
29250 57930 lineto
stroke
0 0 0 setrgbcolor
newpath
36750 59180 moveto
36750 59430 lineto
stroke
0 0 0 setrgbcolor
newpath
36750 59180 moveto
35500 57930 lineto
stroke
0 0 0 setrgbcolor
newpath
29250 57930 moveto
28750 58430 lineto
stroke
0 0 0 setrgbcolor
newpath
28550 58430 moveto
28750 58430 lineto
stroke
0 0 0 setrgbcolor
393.701 setlinewidth
newpath
40500 62930 moveto
38250 62930 lineto
stroke
0 0 0 setrgbcolor
newpath
36750 64430 moveto
36750 64680 lineto
stroke
0 0 0 setrgbcolor
newpath
38250 62930 moveto
36750 64430 lineto
stroke
0 0 0 setrgbcolor
newpath
35000 63930 moveto
35000 65680 lineto
stroke
0 0 0 setrgbcolor
newpath
34750 65930 moveto
35000 65680 lineto
stroke
0 0 0 setrgbcolor
newpath
34750 65930 moveto
34750 68430 lineto
stroke
0 0 0 setrgbcolor
newpath
38750 71680 moveto
43000 71680 lineto
stroke
0 0 0 setrgbcolor
newpath
44250 70430 moveto
44250 65180 lineto
stroke
0 0 0 setrgbcolor
newpath
43000 71680 moveto
44250 70430 lineto
stroke
0 0 0 setrgbcolor
newpath
38750 74430 moveto
38750 73680 lineto
stroke
0 0 0 setrgbcolor
newpath
33750 74430 moveto
33750 73680 lineto
stroke
0 0 0 setrgbcolor
newpath
28750 74430 moveto
28750 73930 lineto
stroke
0 0 0 setrgbcolor
newpath
38750 71680 moveto
33750 71680 lineto
stroke
0 0 0 setrgbcolor
newpath
33750 71680 moveto
31000 71680 lineto
stroke
0 0 0 setrgbcolor
newpath
28750 73930 moveto
31000 71680 lineto
stroke
0 0 0 setrgbcolor
newpath
42250 65180 moveto
42250 66430 lineto
stroke
0 0 0 setrgbcolor
newpath
42000 69680 moveto
38500 69680 lineto
stroke
0 0 0 setrgbcolor
newpath
42750 68930 moveto
42000 69680 lineto
stroke
0 0 0 setrgbcolor
newpath
42750 66930 moveto
42750 68930 lineto
stroke
0 0 0 setrgbcolor
newpath
42250 66430 moveto
42750 66930 lineto
stroke
0 0 0 setrgbcolor
newpath
32750 69180 moveto
33250 69680 lineto
stroke
0 0 0 setrgbcolor
newpath
32750 69180 moveto
32250 69680 lineto
stroke
0 0 0 setrgbcolor
newpath
37750 69180 moveto
38250 69680 lineto
stroke
0 0 0 setrgbcolor
newpath
38250 69680 moveto
38500 69680 lineto
stroke
0 0 0 setrgbcolor
newpath
37250 69680 moveto
37750 69180 lineto
stroke
0 0 0 setrgbcolor
newpath
38500 69680 moveto
37750 69680 lineto
stroke
0 0 0 setrgbcolor
newpath
32750 69680 moveto
33250 69680 lineto
stroke
0 0 0 setrgbcolor
newpath
33250 69680 moveto
37250 69680 lineto
stroke
0 0 0 setrgbcolor
newpath
37250 69680 moveto
37750 69680 lineto
stroke
0 0 0 setrgbcolor
newpath
37750 69680 moveto
37750 69430 lineto
stroke
0 0 0 setrgbcolor
newpath
37750 69430 moveto
37750 69180 lineto
stroke
0 0 0 setrgbcolor
newpath
37750 69180 moveto
37750 68430 lineto
stroke
0 0 0 setrgbcolor
newpath
27750 68430 moveto
27750 68930 lineto
stroke
0 0 0 setrgbcolor
newpath
28500 69680 moveto
32250 69680 lineto
stroke
0 0 0 setrgbcolor
newpath
27750 68930 moveto
28500 69680 lineto
stroke
0 0 0 setrgbcolor
newpath
32250 69680 moveto
32750 69680 lineto
stroke
0 0 0 setrgbcolor
newpath
32750 69680 moveto
32750 69180 lineto
stroke
0 0 0 setrgbcolor
newpath
32750 69180 moveto
32750 68430 lineto
stroke
0 0 0 setrgbcolor
newpath
38750 65430 moveto
38750 64680 lineto
stroke
0 0 0 setrgbcolor
newpath
33750 65430 moveto
31750 65430 lineto
stroke
0 0 0 setrgbcolor
newpath
28750 65430 moveto
28750 68430 lineto
stroke
0 0 0 setrgbcolor
newpath
38750 65430 moveto
38750 68430 lineto
stroke
0 0 0 setrgbcolor
newpath
33750 68430 moveto
33750 65430 lineto
stroke
0 0 0 setrgbcolor
newpath
37750 66430 moveto
37750 64680 lineto
stroke
0 0 0 setrgbcolor
newpath
37750 66430 moveto
36750 66430 lineto
stroke
0 0 0 setrgbcolor
newpath
36750 66430 moveto
37000 66430 lineto
stroke
0 0 0 setrgbcolor
newpath
37000 66430 moveto
35750 66430 lineto
stroke
0 0 0 setrgbcolor
newpath
40750 68430 moveto
40750 66430 lineto
stroke
0 0 0 setrgbcolor
newpath
30750 68430 moveto
30750 66930 lineto
stroke
0 0 0 setrgbcolor
newpath
30750 66930 moveto
31250 66430 lineto
stroke
0 0 0 setrgbcolor
newpath
31250 66430 moveto
32750 66430 lineto
stroke
0 0 0 setrgbcolor
newpath
35750 66430 moveto
35750 68430 lineto
stroke
0 0 0 setrgbcolor
newpath
35000 62930 moveto
34500 62930 lineto
stroke
0 0 0 setrgbcolor
newpath
33250 64180 moveto
33250 64430 lineto
stroke
0 0 0 setrgbcolor
newpath
34500 62930 moveto
33250 64180 lineto
stroke
0 0 0 setrgbcolor
newpath
30500 62930 moveto
31000 62930 lineto
stroke
0 0 0 setrgbcolor
newpath
32250 64180 moveto
32250 64430 lineto
stroke
0 0 0 setrgbcolor
newpath
31000 62930 moveto
32250 64180 lineto
stroke
0 0 0 setrgbcolor
newpath
30000 55430 moveto
30500 55430 lineto
stroke
0 0 0 setrgbcolor
newpath
31500 54430 moveto
31500 53930 lineto
stroke
0 0 0 setrgbcolor
newpath
30500 55430 moveto
31500 54430 lineto
stroke
0 0 0 setrgbcolor
500 setlinewidth
newpath
27250 52480 moveto
26550 52480 lineto
stroke
0 0 0 setrgbcolor
newpath
29750 50430 moveto
30500 51180 lineto
stroke
0 0 0 setrgbcolor
newpath
26750 50430 moveto
29750 50430 lineto
stroke
0 0 0 setrgbcolor
newpath
26200 50980 moveto
26750 50430 lineto
stroke
0 0 0 setrgbcolor
newpath
26200 52130 moveto
26200 50980 lineto
stroke
0 0 0 setrgbcolor
newpath
26550 52480 moveto
26200 52130 lineto
stroke
0 0 0 setrgbcolor
newpath
30500 53930 moveto
30500 52930 lineto
stroke
0 0 0 setrgbcolor
newpath
30500 52930 moveto
30500 51180 lineto
stroke
0 0 0 setrgbcolor
393.701 setlinewidth
newpath
31500 51180 moveto
31500 51930 lineto
stroke
0 0 0 setrgbcolor
newpath
32500 52930 moveto
32500 53930 lineto
stroke
0 0 0 setrgbcolor
newpath
31500 51930 moveto
32500 52930 lineto
stroke
0 0 0 setrgbcolor
newpath
30500 63930 moveto
30500 65430 lineto
stroke
0 0 0 setrgbcolor
newpath
29750 66180 moveto
30500 65430 lineto
stroke
0 0 0 setrgbcolor
newpath
29750 66180 moveto
29750 68430 lineto
stroke
0 0 0 setrgbcolor
newpath
27750 67430 moveto
27750 61180 lineto
stroke
0 0 0 setrgbcolor
newpath
28500 60430 moveto
29000 60430 lineto
stroke
0 0 0 setrgbcolor
newpath
27750 61180 moveto
28500 60430 lineto
stroke
0 0 0 setrgbcolor
newpath
41750 68430 moveto
41750 67430 lineto
stroke
0 0 0 setrgbcolor
newpath
37750 67430 moveto
36750 67430 lineto
stroke
0 0 0 setrgbcolor
newpath
31750 67430 moveto
32750 67430 lineto
stroke
0 0 0 setrgbcolor
newpath
31750 68430 moveto
31750 67430 lineto
stroke
0 0 0 setrgbcolor
500 setlinewidth
newpath
36750 67430 moveto
36750 68430 lineto
stroke
0 0 0 setrgbcolor
393.701 setlinewidth
newpath
43500 66180 moveto
43500 69680 lineto
stroke
0 0 0 setrgbcolor
newpath
43250 65180 moveto
43250 65930 lineto
stroke
0 0 0 setrgbcolor
newpath
43250 65930 moveto
43500 66180 lineto
stroke
0 0 0 setrgbcolor
newpath
42500 70680 moveto
37750 70680 lineto
stroke
0 0 0 setrgbcolor
newpath
43500 69680 moveto
42500 70680 lineto
stroke
0 0 0 setrgbcolor
newpath
37750 74430 moveto
37750 73680 lineto
stroke
0 0 0 setrgbcolor
newpath
32750 74430 moveto
32750 73680 lineto
stroke
0 0 0 setrgbcolor
newpath
30750 70680 moveto
30500 70680 lineto
stroke
0 0 0 setrgbcolor
newpath
37750 70680 moveto
32750 70680 lineto
stroke
0 0 0 setrgbcolor
newpath
32750 70680 moveto
30750 70680 lineto
stroke
0 0 0 setrgbcolor
newpath
27750 73430 moveto
27750 74430 lineto
stroke
0 0 0 setrgbcolor
newpath
30500 70680 moveto
27750 73430 lineto
stroke
0 0 0 setrgbcolor
newpath
41750 74430 moveto
43250 74430 lineto
stroke
0 0 0 setrgbcolor
newpath
46250 66430 moveto
46250 65180 lineto
stroke
0 0 0 setrgbcolor
newpath
46250 66430 moveto
45750 66930 lineto
stroke
0 0 0 setrgbcolor
newpath
45750 66930 moveto
45750 70930 lineto
stroke
0 0 0 setrgbcolor
newpath
45750 71930 moveto
45750 70930 lineto
stroke
0 0 0 setrgbcolor
newpath
43250 74430 moveto
45750 71930 lineto
stroke
0 0 0 setrgbcolor
newpath
36750 74930 moveto
37250 75430 lineto
stroke
0 0 0 setrgbcolor
newpath
36250 75430 moveto
36750 74930 lineto
stroke
0 0 0 setrgbcolor
newpath
36750 75430 moveto
36250 75430 lineto
stroke
0 0 0 setrgbcolor
newpath
36250 75430 moveto
32500 75430 lineto
stroke
0 0 0 setrgbcolor
newpath
31750 74680 moveto
31750 74430 lineto
stroke
0 0 0 setrgbcolor
newpath
32500 75430 moveto
31750 74680 lineto
stroke
0 0 0 setrgbcolor
newpath
36750 74430 moveto
36750 74930 lineto
stroke
0 0 0 setrgbcolor
newpath
36750 74930 moveto
36750 75180 lineto
stroke
0 0 0 setrgbcolor
newpath
36750 75180 moveto
36750 75430 lineto
stroke
0 0 0 setrgbcolor
newpath
41750 74680 moveto
41750 74430 lineto
stroke
0 0 0 setrgbcolor
newpath
37250 75430 moveto
41000 75430 lineto
stroke
0 0 0 setrgbcolor
newpath
41000 75430 moveto
41750 74680 lineto
stroke
0 0 0 setrgbcolor
newpath
36750 75430 moveto
37250 75430 lineto
stroke
0 0 0 setrgbcolor
newpath
45000 66180 moveto
45000 71180 lineto
stroke
0 0 0 setrgbcolor
newpath
41250 72680 moveto
42750 72680 lineto
stroke
0 0 0 setrgbcolor
newpath
45250 65930 moveto
45000 66180 lineto
stroke
0 0 0 setrgbcolor
newpath
45250 65930 moveto
45250 65180 lineto
stroke
0 0 0 setrgbcolor
newpath
43500 72680 moveto
42750 72680 lineto
stroke
0 0 0 setrgbcolor
newpath
45000 71180 moveto
43500 72680 lineto
stroke
0 0 0 setrgbcolor
newpath
40750 73180 moveto
41250 72680 lineto
stroke
0 0 0 setrgbcolor
newpath
40250 72680 moveto
40750 73180 lineto
stroke
0 0 0 setrgbcolor
newpath
40750 74430 moveto
40750 73180 lineto
stroke
0 0 0 setrgbcolor
newpath
40750 73180 moveto
40750 72680 lineto
stroke
0 0 0 setrgbcolor
newpath
35750 73180 moveto
36250 72680 lineto
stroke
0 0 0 setrgbcolor
newpath
36250 72680 moveto
36000 72680 lineto
stroke
0 0 0 setrgbcolor
newpath
35250 72680 moveto
35750 73180 lineto
stroke
0 0 0 setrgbcolor
newpath
35750 74430 moveto
35750 73180 lineto
stroke
0 0 0 setrgbcolor
newpath
35750 73180 moveto
35750 72680 lineto
stroke
0 0 0 setrgbcolor
newpath
30750 74430 moveto
30750 73680 lineto
stroke
0 0 0 setrgbcolor
newpath
36000 72680 moveto
40250 72680 lineto
stroke
0 0 0 setrgbcolor
newpath
40250 72680 moveto
40750 72680 lineto
stroke
0 0 0 setrgbcolor
newpath
40750 72680 moveto
41250 72680 lineto
stroke
0 0 0 setrgbcolor
newpath
31750 72680 moveto
35250 72680 lineto
stroke
0 0 0 setrgbcolor
newpath
35250 72680 moveto
35750 72680 lineto
stroke
0 0 0 setrgbcolor
newpath
35750 72680 moveto
36000 72680 lineto
stroke
0 0 0 setrgbcolor
newpath
30750 73680 moveto
31750 72680 lineto
stroke
0 0 0 setrgbcolor
newpath
40500 63930 moveto
40500 65180 lineto
stroke
0 0 0 setrgbcolor
newpath
39750 65930 moveto
40500 65180 lineto
stroke
0 0 0 setrgbcolor
newpath
39750 65930 moveto
39750 68430 lineto
stroke
0 0 0 setrgbcolor
newpath
41500 53930 moveto
42200 53930 lineto
stroke
0 0 0 setrgbcolor
newpath
37500 53930 moveto
36750 53930 lineto
stroke
0 0 0 setrgbcolor
newpath
34750 56430 moveto
34750 55930 lineto
stroke
0 0 0 setrgbcolor
newpath
41500 53930 moveto
37500 53930 lineto
stroke
0 0 0 setrgbcolor
newpath
36750 53930 moveto
34750 55930 lineto
stroke
0 0 0 setrgbcolor
newpath
42200 53930 moveto
42750 53380 lineto
stroke
0 0 0 setrgbcolor
newpath
36250 53180 moveto
39500 53180 lineto
stroke
0 0 0 setrgbcolor
newpath
33750 56430 moveto
33750 55680 lineto
stroke
0 0 0 setrgbcolor
newpath
36250 53180 moveto
33750 55680 lineto
stroke
0 0 0 setrgbcolor
newpath
43750 50930 moveto
43250 50430 lineto
stroke
0 0 0 setrgbcolor
newpath
43250 50430 moveto
42250 50430 lineto
stroke
0 0 0 setrgbcolor
newpath
43750 50930 moveto
43750 51880 lineto
stroke
0 0 0 setrgbcolor
newpath
39500 53180 moveto
42250 50430 lineto
stroke
0 0 0 setrgbcolor
newpath
39000 51180 moveto
39000 51930 lineto
stroke
0 0 0 setrgbcolor
newpath
32750 55430 moveto
32750 56430 lineto
stroke
0 0 0 setrgbcolor
newpath
35750 52430 moveto
32750 55430 lineto
stroke
0 0 0 setrgbcolor
newpath
38500 52430 moveto
35750 52430 lineto
stroke
0 0 0 setrgbcolor
newpath
39000 51930 moveto
38500 52430 lineto
stroke
0 0 0 setrgbcolor
500 setlinewidth
newpath
30500 61930 moveto
29000 61930 lineto
stroke
0 0 0 setrgbcolor
newpath
40500 61930 moveto
41250 61930 lineto
stroke
0 0 0 setrgbcolor
newpath
41800 52380 moveto
42750 52380 lineto
stroke
0 0 0 setrgbcolor
newpath
41250 52930 moveto
41800 52380 lineto
stroke
0 0 0 setrgbcolor
newpath
28250 52980 moveto
28800 52980 lineto
stroke
0 0 0 setrgbcolor
newpath
26250 57430 moveto
26000 57430 lineto
stroke
0 0 0 setrgbcolor
newpath
29250 54430 moveto
26250 57430 lineto
stroke
0 0 0 setrgbcolor
newpath
29250 53430 moveto
29250 54430 lineto
stroke
0 0 0 setrgbcolor
newpath
28800 52980 moveto
29250 53430 lineto
stroke
0 0 0 setrgbcolor
newpath
24750 61430 moveto
24750 59430 lineto
stroke
0 0 0 setrgbcolor
newpath
26000 58180 moveto
26000 57430 lineto
stroke
0 0 0 setrgbcolor
newpath
24750 59430 moveto
26000 58180 lineto
stroke
0 0 0 setrgbcolor
newpath
24750 61930 moveto
24750 61430 lineto
stroke
0 0 0 setrgbcolor
393.701 setlinewidth
newpath
27000 57430 moveto
28000 57430 lineto
stroke
0 0 0 setrgbcolor
newpath
26000 57430 moveto
27000 57430 lineto
stroke
0 0 0 setrgbcolor
500 setlinewidth
newpath
24750 62930 moveto
24750 61930 lineto
stroke
0 0 0 setrgbcolor
newpath
35000 61930 moveto
30500 61930 lineto
stroke
0 0 0 setrgbcolor
newpath
40500 61930 moveto
35000 61930 lineto
stroke
0 0 0 setrgbcolor
393.701 setlinewidth
newpath
35750 56430 moveto
35750 56680 lineto
stroke
0 0 0 setrgbcolor
newpath
35750 56680 moveto
35100 57330 lineto
stroke
0 0 0 setrgbcolor
newpath
35100 57330 moveto
28100 57330 lineto
stroke
0 0 0 setrgbcolor
newpath
28100 57330 moveto
28000 57430 lineto
stroke
0 0 0 setrgbcolor
newpath
28050 57380 moveto
28000 57430 lineto
stroke
0 0 0 setrgbcolor
59.0551 setlinewidth
newpath
35850.4 59337.5 moveto
35842.5 59337.5 lineto
35842.5 59329.6 lineto
35657.5 59329.6 lineto
35657.5 59337.5 lineto
35649.6 59337.5 lineto
35649.6 59522.5 lineto
35657.5 59522.5 lineto
35657.5 59530.4 lineto
35842.5 59530.4 lineto
35842.5 59522.5 lineto
35850.4 59522.5 lineto
35850.4 59337.5 lineto
poly1
314.961 setlinewidth
newpath
35850.4 59337.5 moveto
35842.5 59337.5 lineto
35842.5 59329.6 lineto
35657.5 59329.6 lineto
35657.5 59337.5 lineto
35649.6 59337.5 lineto
35649.6 59522.5 lineto
35657.5 59522.5 lineto
35657.5 59530.4 lineto
35842.5 59530.4 lineto
35842.5 59522.5 lineto
35850.4 59522.5 lineto
35850.4 59337.5 lineto
poly0
59.0551 setlinewidth
newpath
43886.4 52874.4 moveto
43755.6 52743.6 lineto
43750 52749.2 lineto
43744.4 52743.6 lineto
43613.6 52874.4 lineto
43619.2 52880 lineto
43613.6 52885.6 lineto
43744.4 53016.4 lineto
43750 53010.8 lineto
43755.6 53016.4 lineto
43886.4 52885.6 lineto
43880.8 52880 lineto
43886.4 52874.4 lineto
poly1
314.961 setlinewidth
newpath
43886.4 52874.4 moveto
43755.6 52743.6 lineto
43750 52749.2 lineto
43744.4 52743.6 lineto
43613.6 52874.4 lineto
43619.2 52880 lineto
43613.6 52885.6 lineto
43744.4 53016.4 lineto
43750 53010.8 lineto
43755.6 53016.4 lineto
43886.4 52885.6 lineto
43880.8 52880 lineto
43886.4 52874.4 lineto
poly0
59.0551 setlinewidth
newpath
47257.9 49422.1 moveto
47076.9 49422.1 lineto
47076.9 61343.7 lineto
46951.3 61647.7 lineto
46798.2 61801.1 lineto
47056.1 61801.1 lineto
47056.1 64965.4 lineto
47076.6 65014.8 lineto
47076.9 65343.7 lineto
46951.3 65647.7 lineto
46919.3 65679.8 lineto
46919.3 66430 lineto
46919.3 66430 lineto
46919.3 66430 lineto
46868.3 66686.1 lineto
46723.3 66903.3 lineto
46723.3 66903.3 lineto
46419.3 67207.2 lineto
46419.3 70930 lineto
46419.3 71930 lineto
46419.3 71930 lineto
46419.3 71930 lineto
46368.3 72186.1 lineto
46223.3 72403.3 lineto
46223.3 72403.3 lineto
43723.3 74903.3 lineto
43506.1 75048.3 lineto
43250 75099.3 lineto
43250 75099.3 lineto
42259.3 75099.3 lineto
42223.3 75153.3 lineto
42223.3 75153.3 lineto
41473.3 75903.3 lineto
41256.1 76048.3 lineto
41000 76099.3 lineto
41000 76099.3 lineto
37250 76099.3 lineto
37250 76099.3 lineto
37250 76099.3 lineto
36750 76099.3 lineto
36250 76099.3 lineto
36250 76099.3 lineto
36250 76099.3 lineto
32500 76099.3 lineto
32500 76099.3 lineto
32243.9 76048.3 lineto
32026.7 75903.3 lineto
32026.7 75903.3 lineto
31276.7 75153.3 lineto
31244.5 75104.9 lineto
31218.9 75130.5 lineto
30915.2 75256.6 lineto
30586.3 75256.9 lineto
30282.3 75131.3 lineto
30250.1 75099.2 lineto
30218.9 75130.5 lineto
29915.2 75256.6 lineto
29586.3 75256.9 lineto
29282.3 75131.3 lineto
29250.1 75099.2 lineto
29218.9 75130.5 lineto
28915.2 75256.6 lineto
28586.3 75256.9 lineto
28282.3 75131.3 lineto
28250.1 75099.2 lineto
28218.9 75130.5 lineto
27915.2 75256.6 lineto
27586.3 75256.9 lineto
27282.3 75131.3 lineto
27049.5 74898.9 lineto
26923.4 74595.2 lineto
26923.1 74266.3 lineto
27048.7 73962.3 lineto
27080.7 73930.2 lineto
27080.7 73430 lineto
27080.7 73430 lineto
27119.3 73236.1 lineto
25308.1 73236.1 lineto
25308.1 66647.6 lineto
25148.7 66581.7 lineto
24849.4 66282.9 lineto
24687.2 65892.4 lineto
24686.8 65469.5 lineto
24848.3 65078.7 lineto
25147.1 64779.4 lineto
25537.6 64617.2 lineto
25960.5 64616.8 lineto
26351.3 64778.3 lineto
26650.6 65077.1 lineto
26812.8 65467.6 lineto
26813.2 65890.5 lineto
26651.7 66281.4 lineto
26514.3 66419 lineto
27080.7 66419 lineto
27080.7 63637.7 lineto
26945.1 63708 lineto
26842.5 63641.1 lineto
26842.5 63087.5 lineto
26657.5 63087.5 lineto
26657.5 63641.1 lineto
26554.9 63708 lineto
26338.2 63595.6 lineto
26306.8 63642.7 lineto
26051.3 63813.4 lineto
25750 63873.3 lineto
25448.7 63813.4 lineto
25250 63680.6 lineto
25051.3 63813.4 lineto
24750 63873.3 lineto
24448.7 63813.4 lineto
24193.2 63642.7 lineto
24022.5 63387.2 lineto
23962.6 63085.9 lineto
23962.6 62774.1 lineto
24022.5 62472.8 lineto
24027.6 62465.2 lineto
24027.6 62346.1 lineto
23923.4 62095.2 lineto
23923.1 61766.3 lineto
24027.6 61513.4 lineto
24027.6 61430 lineto
24027.6 59430 lineto
24082.6 59153.5 lineto
24239.2 58919.2 lineto
25120.1 58038.3 lineto
25092.5 58010.7 lineto
25092.5 57522.5 lineto
25100.4 57522.5 lineto
25100.4 57337.5 lineto
25092.5 57337.5 lineto
25092.5 56849.3 lineto
25181.1 56760.7 lineto
25371.3 56760.7 lineto
25417.1 56714.8 lineto
25590.7 56642.7 lineto
25778.6 56642.5 lineto
26015.8 56642.5 lineto
27920.1 54738.2 lineto
27782.3 54681.3 lineto
27549.5 54448.9 lineto
27479.3 54280 lineto
27415.2 54306.6 lineto
27086.3 54306.9 lineto
26782.3 54181.3 lineto
26549.5 53948.9 lineto
26423.4 53645.2 lineto
26423.1 53316.3 lineto
26476.2 53187.8 lineto
26273.5 53147.4 lineto
26039.2 52990.8 lineto
26039.2 52990.8 lineto
26039.2 52990.8 lineto
25689.2 52640.8 lineto
25532.6 52406.5 lineto
25477.6 52130 lineto
25477.6 50980 lineto
25532.6 50703.5 lineto
25689.2 50469.2 lineto
26239.2 49919.2 lineto
26473.5 49762.6 lineto
26750 49707.6 lineto
29750 49707.6 lineto
30026.5 49762.6 lineto
30260.8 49919.2 lineto
30597.8 50256.1 lineto
30801.3 50296.6 lineto
31000 50429.4 lineto
31198.7 50296.6 lineto
31500 50236.7 lineto
31801.3 50296.6 lineto
32056.8 50467.3 lineto
32088.2 50514.4 lineto
32304.9 50402 lineto
32407.5 50468.9 lineto
32407.5 51087.5 lineto
32399.6 51087.5 lineto
32399.6 51272.5 lineto
32407.5 51272.5 lineto
32407.5 51280.4 lineto
32592.5 51280.4 lineto
32592.5 51272.5 lineto
33083.8 51272.5 lineto
33171.2 51378.3 lineto
33097 51630.5 lineto
32931.9 51835.2 lineto
32695.1 51958 lineto
32592.5 51891.1 lineto
32592.5 51987.1 lineto
32503.6 51987.1 lineto
32973.3 52456.7 lineto
32973.3 52456.7 lineto
32973.3 52456.7 lineto
33118.3 52673.9 lineto
33169.3 52930 lineto
33169.3 53385.7 lineto
33227.5 53472.8 lineto
33287.4 53774.1 lineto
33287.4 53946.1 lineto
35276.7 51956.7 lineto
35276.7 51956.7 lineto
35493.9 51811.7 lineto
35750 51760.7 lineto
38222.8 51760.7 lineto
38318.1 51665.3 lineto
38272.5 51597.1 lineto
38212.6 51295.8 lineto
38212.6 51064.2 lineto
38272.5 50762.9 lineto
38443.2 50507.4 lineto
38698.7 50336.8 lineto
39000 50276.8 lineto
39301.3 50336.8 lineto
39556.8 50507.4 lineto
39589.6 50556.5 lineto
39601.6 50543.2 lineto
39804.9 50441.3 lineto
39907.5 50508.3 lineto
39907.5 51087.5 lineto
39899.6 51087.5 lineto
39899.6 51272.5 lineto
39907.5 51272.5 lineto
39907.5 51280.4 lineto
40092.5 51280.4 lineto
40092.5 51272.5 lineto
40100.4 51272.5 lineto
40100.4 51087.5 lineto
40092.5 51087.5 lineto
40092.5 50508.3 lineto
40195.1 50441.3 lineto
40398.4 50543.2 lineto
40574.1 50736.7 lineto
40662.4 50982.6 lineto
40581.1 51087.5 lineto
40646 51087.5 lineto
41776.7 49956.7 lineto
41776.7 49956.7 lineto
41993.9 49811.7 lineto
42250 49760.7 lineto
42250 49760.7 lineto
42250 49760.7 lineto
43250 49760.7 lineto
43250 49760.7 lineto
43250 49760.7 lineto
43506.1 49811.7 lineto
43723.3 49956.7 lineto
44223.3 50456.7 lineto
44223.3 50456.7 lineto
44223.3 50456.7 lineto
44368.3 50673.9 lineto
44419.3 50930 lineto
44419.3 50930 lineto
44419.3 50930 lineto
44419.3 51379.9 lineto
44450.5 51411.1 lineto
44576.6 51714.8 lineto
44576.9 52043.7 lineto
44451.3 52347.7 lineto
44289.6 52509.7 lineto
44384.1 52533.6 lineto
44468.4 52802.7 lineto
44443.3 53083.5 lineto
44384.1 53226.4 lineto
44289.5 53250.3 lineto
44450.5 53411.1 lineto
44576.6 53714.8 lineto
44576.9 54043.7 lineto
44451.3 54347.7 lineto
44218.9 54580.5 lineto
43915.2 54706.6 lineto
43586.3 54706.9 lineto
43282.3 54581.3 lineto
43049.5 54348.9 lineto
42979.3 54180 lineto
42915.2 54206.6 lineto
42869.9 54206.7 lineto
42673.3 54403.3 lineto
42456.1 54548.3 lineto
42200 54599.3 lineto
42200 54599.3 lineto
41865.8 54599.3 lineto
46723.3 59456.7 lineto
46723.3 59456.7 lineto
46723.3 59456.7 lineto
46868.3 59673.9 lineto
46919.3 59930 lineto
46919.3 59930 lineto
46919.3 59930 lineto
46919.3 60679.9 lineto
46950.5 60711.1 lineto
47076.6 61014.8 lineto
47076.9 61343.7 lineto
47076.9 49422.1 lineto
40662.4 49422.1 lineto
36541.9 49422.1 lineto
36578.1 49458.3 lineto
36772.2 49925.8 lineto
36772.7 50432 lineto
36579.4 50899.8 lineto
36221.7 51258.1 lineto
35754.2 51452.2 lineto
35248 51452.7 lineto
34780.2 51259.4 lineto
34421.9 50901.7 lineto
34227.8 50434.2 lineto
34227.3 49928 lineto
34420.6 49460.2 lineto
34458.6 49422.1 lineto
33171.2 49422.1 lineto
33171.2 50981.7 lineto
33083.8 51087.5 lineto
32592.5 51087.5 lineto
32592.5 50468.9 lineto
32695.1 50402 lineto
32931.9 50524.8 lineto
33097 50729.5 lineto
33171.2 50981.7 lineto
33171.2 49422.1 lineto
24907.5 49422.1 lineto
24907.5 56849.3 lineto
24907.5 57337.5 lineto
24907.5 57522.5 lineto
24907.5 58010.7 lineto
24818.9 58099.3 lineto
24614.9 58099.4 lineto
24484.6 58045.5 lineto
24384.8 57945.9 lineto
24330.8 57815.8 lineto
24330.6 57674.8 lineto
24330.7 57611.1 lineto
24419.3 57522.5 lineto
24907.5 57522.5 lineto
24907.5 57337.5 lineto
24419.3 57337.5 lineto
24330.7 57248.9 lineto
24330.6 57185.2 lineto
24330.8 57044.2 lineto
24384.8 56914.1 lineto
24484.6 56814.5 lineto
24614.9 56760.6 lineto
24818.9 56760.7 lineto
24907.5 56849.3 lineto
24907.5 49422.1 lineto
23742.1 49422.1 lineto
23742.1 49430 lineto
23742.1 74638.1 lineto
23778.3 74601.9 lineto
24245.8 74407.8 lineto
24752 74407.3 lineto
25219.8 74600.6 lineto
25578.1 74958.3 lineto
25772.2 75425.8 lineto
25772.7 75932 lineto
25579.4 76399.8 lineto
25541.4 76437.9 lineto
45458.1 76437.9 lineto
45421.9 76401.7 lineto
45227.8 75934.2 lineto
45227.3 75428 lineto
45420.6 74960.2 lineto
45778.3 74601.9 lineto
46245.8 74407.8 lineto
46752 74407.3 lineto
47219.8 74600.6 lineto
47257.9 74638.6 lineto
47257.9 49430 lineto
47257.9 49422.1 lineto
poly1
314.961 setlinewidth
newpath
47257.9 49422.1 moveto
47076.9 49422.1 lineto
47076.9 61343.7 lineto
46951.3 61647.7 lineto
46798.2 61801.1 lineto
47056.1 61801.1 lineto
47056.1 64965.4 lineto
47076.6 65014.8 lineto
47076.9 65343.7 lineto
46951.3 65647.7 lineto
46919.3 65679.8 lineto
46919.3 66430 lineto
46919.3 66430 lineto
46919.3 66430 lineto
46868.3 66686.1 lineto
46723.3 66903.3 lineto
46723.3 66903.3 lineto
46419.3 67207.2 lineto
46419.3 70930 lineto
46419.3 71930 lineto
46419.3 71930 lineto
46419.3 71930 lineto
46368.3 72186.1 lineto
46223.3 72403.3 lineto
46223.3 72403.3 lineto
43723.3 74903.3 lineto
43506.1 75048.3 lineto
43250 75099.3 lineto
43250 75099.3 lineto
42259.3 75099.3 lineto
42223.3 75153.3 lineto
42223.3 75153.3 lineto
41473.3 75903.3 lineto
41256.1 76048.3 lineto
41000 76099.3 lineto
41000 76099.3 lineto
37250 76099.3 lineto
37250 76099.3 lineto
37250 76099.3 lineto
36750 76099.3 lineto
36250 76099.3 lineto
36250 76099.3 lineto
36250 76099.3 lineto
32500 76099.3 lineto
32500 76099.3 lineto
32243.9 76048.3 lineto
32026.7 75903.3 lineto
32026.7 75903.3 lineto
31276.7 75153.3 lineto
31244.5 75104.9 lineto
31218.9 75130.5 lineto
30915.2 75256.6 lineto
30586.3 75256.9 lineto
30282.3 75131.3 lineto
30250.1 75099.2 lineto
30218.9 75130.5 lineto
29915.2 75256.6 lineto
29586.3 75256.9 lineto
29282.3 75131.3 lineto
29250.1 75099.2 lineto
29218.9 75130.5 lineto
28915.2 75256.6 lineto
28586.3 75256.9 lineto
28282.3 75131.3 lineto
28250.1 75099.2 lineto
28218.9 75130.5 lineto
27915.2 75256.6 lineto
27586.3 75256.9 lineto
27282.3 75131.3 lineto
27049.5 74898.9 lineto
26923.4 74595.2 lineto
26923.1 74266.3 lineto
27048.7 73962.3 lineto
27080.7 73930.2 lineto
27080.7 73430 lineto
27080.7 73430 lineto
27119.3 73236.1 lineto
25308.1 73236.1 lineto
25308.1 66647.6 lineto
25148.7 66581.7 lineto
24849.4 66282.9 lineto
24687.2 65892.4 lineto
24686.8 65469.5 lineto
24848.3 65078.7 lineto
25147.1 64779.4 lineto
25537.6 64617.2 lineto
25960.5 64616.8 lineto
26351.3 64778.3 lineto
26650.6 65077.1 lineto
26812.8 65467.6 lineto
26813.2 65890.5 lineto
26651.7 66281.4 lineto
26514.3 66419 lineto
27080.7 66419 lineto
27080.7 63637.7 lineto
26945.1 63708 lineto
26842.5 63641.1 lineto
26842.5 63087.5 lineto
26657.5 63087.5 lineto
26657.5 63641.1 lineto
26554.9 63708 lineto
26338.2 63595.6 lineto
26306.8 63642.7 lineto
26051.3 63813.4 lineto
25750 63873.3 lineto
25448.7 63813.4 lineto
25250 63680.6 lineto
25051.3 63813.4 lineto
24750 63873.3 lineto
24448.7 63813.4 lineto
24193.2 63642.7 lineto
24022.5 63387.2 lineto
23962.6 63085.9 lineto
23962.6 62774.1 lineto
24022.5 62472.8 lineto
24027.6 62465.2 lineto
24027.6 62346.1 lineto
23923.4 62095.2 lineto
23923.1 61766.3 lineto
24027.6 61513.4 lineto
24027.6 61430 lineto
24027.6 59430 lineto
24082.6 59153.5 lineto
24239.2 58919.2 lineto
25120.1 58038.3 lineto
25092.5 58010.7 lineto
25092.5 57522.5 lineto
25100.4 57522.5 lineto
25100.4 57337.5 lineto
25092.5 57337.5 lineto
25092.5 56849.3 lineto
25181.1 56760.7 lineto
25371.3 56760.7 lineto
25417.1 56714.8 lineto
25590.7 56642.7 lineto
25778.6 56642.5 lineto
26015.8 56642.5 lineto
27920.1 54738.2 lineto
27782.3 54681.3 lineto
27549.5 54448.9 lineto
27479.3 54280 lineto
27415.2 54306.6 lineto
27086.3 54306.9 lineto
26782.3 54181.3 lineto
26549.5 53948.9 lineto
26423.4 53645.2 lineto
26423.1 53316.3 lineto
26476.2 53187.8 lineto
26273.5 53147.4 lineto
26039.2 52990.8 lineto
26039.2 52990.8 lineto
26039.2 52990.8 lineto
25689.2 52640.8 lineto
25532.6 52406.5 lineto
25477.6 52130 lineto
25477.6 50980 lineto
25532.6 50703.5 lineto
25689.2 50469.2 lineto
26239.2 49919.2 lineto
26473.5 49762.6 lineto
26750 49707.6 lineto
29750 49707.6 lineto
30026.5 49762.6 lineto
30260.8 49919.2 lineto
30597.8 50256.1 lineto
30801.3 50296.6 lineto
31000 50429.4 lineto
31198.7 50296.6 lineto
31500 50236.7 lineto
31801.3 50296.6 lineto
32056.8 50467.3 lineto
32088.2 50514.4 lineto
32304.9 50402 lineto
32407.5 50468.9 lineto
32407.5 51087.5 lineto
32399.6 51087.5 lineto
32399.6 51272.5 lineto
32407.5 51272.5 lineto
32407.5 51280.4 lineto
32592.5 51280.4 lineto
32592.5 51272.5 lineto
33083.8 51272.5 lineto
33171.2 51378.3 lineto
33097 51630.5 lineto
32931.9 51835.2 lineto
32695.1 51958 lineto
32592.5 51891.1 lineto
32592.5 51987.1 lineto
32503.6 51987.1 lineto
32973.3 52456.7 lineto
32973.3 52456.7 lineto
32973.3 52456.7 lineto
33118.3 52673.9 lineto
33169.3 52930 lineto
33169.3 53385.7 lineto
33227.5 53472.8 lineto
33287.4 53774.1 lineto
33287.4 53946.1 lineto
35276.7 51956.7 lineto
35276.7 51956.7 lineto
35493.9 51811.7 lineto
35750 51760.7 lineto
38222.8 51760.7 lineto
38318.1 51665.3 lineto
38272.5 51597.1 lineto
38212.6 51295.8 lineto
38212.6 51064.2 lineto
38272.5 50762.9 lineto
38443.2 50507.4 lineto
38698.7 50336.8 lineto
39000 50276.8 lineto
39301.3 50336.8 lineto
39556.8 50507.4 lineto
39589.6 50556.5 lineto
39601.6 50543.2 lineto
39804.9 50441.3 lineto
39907.5 50508.3 lineto
39907.5 51087.5 lineto
39899.6 51087.5 lineto
39899.6 51272.5 lineto
39907.5 51272.5 lineto
39907.5 51280.4 lineto
40092.5 51280.4 lineto
40092.5 51272.5 lineto
40100.4 51272.5 lineto
40100.4 51087.5 lineto
40092.5 51087.5 lineto
40092.5 50508.3 lineto
40195.1 50441.3 lineto
40398.4 50543.2 lineto
40574.1 50736.7 lineto
40662.4 50982.6 lineto
40581.1 51087.5 lineto
40646 51087.5 lineto
41776.7 49956.7 lineto
41776.7 49956.7 lineto
41993.9 49811.7 lineto
42250 49760.7 lineto
42250 49760.7 lineto
42250 49760.7 lineto
43250 49760.7 lineto
43250 49760.7 lineto
43250 49760.7 lineto
43506.1 49811.7 lineto
43723.3 49956.7 lineto
44223.3 50456.7 lineto
44223.3 50456.7 lineto
44223.3 50456.7 lineto
44368.3 50673.9 lineto
44419.3 50930 lineto
44419.3 50930 lineto
44419.3 50930 lineto
44419.3 51379.9 lineto
44450.5 51411.1 lineto
44576.6 51714.8 lineto
44576.9 52043.7 lineto
44451.3 52347.7 lineto
44289.6 52509.7 lineto
44384.1 52533.6 lineto
44468.4 52802.7 lineto
44443.3 53083.5 lineto
44384.1 53226.4 lineto
44289.5 53250.3 lineto
44450.5 53411.1 lineto
44576.6 53714.8 lineto
44576.9 54043.7 lineto
44451.3 54347.7 lineto
44218.9 54580.5 lineto
43915.2 54706.6 lineto
43586.3 54706.9 lineto
43282.3 54581.3 lineto
43049.5 54348.9 lineto
42979.3 54180 lineto
42915.2 54206.6 lineto
42869.9 54206.7 lineto
42673.3 54403.3 lineto
42456.1 54548.3 lineto
42200 54599.3 lineto
42200 54599.3 lineto
41865.8 54599.3 lineto
46723.3 59456.7 lineto
46723.3 59456.7 lineto
46723.3 59456.7 lineto
46868.3 59673.9 lineto
46919.3 59930 lineto
46919.3 59930 lineto
46919.3 59930 lineto
46919.3 60679.9 lineto
46950.5 60711.1 lineto
47076.6 61014.8 lineto
47076.9 61343.7 lineto
47076.9 49422.1 lineto
40662.4 49422.1 lineto
36541.9 49422.1 lineto
36578.1 49458.3 lineto
36772.2 49925.8 lineto
36772.7 50432 lineto
36579.4 50899.8 lineto
36221.7 51258.1 lineto
35754.2 51452.2 lineto
35248 51452.7 lineto
34780.2 51259.4 lineto
34421.9 50901.7 lineto
34227.8 50434.2 lineto
34227.3 49928 lineto
34420.6 49460.2 lineto
34458.6 49422.1 lineto
33171.2 49422.1 lineto
33171.2 50981.7 lineto
33083.8 51087.5 lineto
32592.5 51087.5 lineto
32592.5 50468.9 lineto
32695.1 50402 lineto
32931.9 50524.8 lineto
33097 50729.5 lineto
33171.2 50981.7 lineto
33171.2 49422.1 lineto
24907.5 49422.1 lineto
24907.5 56849.3 lineto
24907.5 57337.5 lineto
24907.5 57522.5 lineto
24907.5 58010.7 lineto
24818.9 58099.3 lineto
24614.9 58099.4 lineto
24484.6 58045.5 lineto
24384.8 57945.9 lineto
24330.8 57815.8 lineto
24330.6 57674.8 lineto
24330.7 57611.1 lineto
24419.3 57522.5 lineto
24907.5 57522.5 lineto
24907.5 57337.5 lineto
24419.3 57337.5 lineto
24330.7 57248.9 lineto
24330.6 57185.2 lineto
24330.8 57044.2 lineto
24384.8 56914.1 lineto
24484.6 56814.5 lineto
24614.9 56760.6 lineto
24818.9 56760.7 lineto
24907.5 56849.3 lineto
24907.5 49422.1 lineto
23742.1 49422.1 lineto
23742.1 49430 lineto
23742.1 74638.1 lineto
23778.3 74601.9 lineto
24245.8 74407.8 lineto
24752 74407.3 lineto
25219.8 74600.6 lineto
25578.1 74958.3 lineto
25772.2 75425.8 lineto
25772.7 75932 lineto
25579.4 76399.8 lineto
25541.4 76437.9 lineto
45458.1 76437.9 lineto
45421.9 76401.7 lineto
45227.8 75934.2 lineto
45227.3 75428 lineto
45420.6 74960.2 lineto
45778.3 74601.9 lineto
46245.8 74407.8 lineto
46752 74407.3 lineto
47219.8 74600.6 lineto
47257.9 74638.6 lineto
47257.9 49430 lineto
47257.9 49422.1 lineto
poly0
1 1 1 setrgbcolor
59.0551 setlinewidth
38750 71680 127.953 cir1
38750 73680 127.953 cir1
33750 71680 127.953 cir1
33750 73680 127.953 cir1
28750 65430 127.953 cir1
31750 65430 127.953 cir1
38750 65430 127.953 cir1
33750 65430 127.953 cir1
35750 66430 127.953 cir1
37750 66430 127.953 cir1
40750 66430 127.953 cir1
32750 66430 127.953 cir1
27750 67430 127.953 cir1
31750 67430 127.953 cir1
41750 67430 127.953 cir1
37750 67430 127.953 cir1
36750 67430 127.953 cir1
32750 67430 127.953 cir1
37750 70680 127.953 cir1
37750 73680 127.953 cir1
32750 70680 127.953 cir1
32750 73680 127.953 cir1
24750 61930 127.953 cir1
29000 61930 127.953 cir1
41250 52930 127.953 cir1
41250 61930 127.953 cir1
36750 60680 130.472 cir1
36750 64680 130.472 cir1
33250 60430 130.472 cir1
33250 64430 130.472 cir1
32250 60430 130.472 cir1
32250 64430 130.472 cir1
43250 61180 130.472 cir1
43250 65180 130.472 cir1
44250 61180 130.472 cir1
44250 65180 130.472 cir1
42250 61180 130.472 cir1
42250 65180 130.472 cir1
38750 60680 130.472 cir1
38750 64680 130.472 cir1
37750 60680 130.472 cir1
37750 64680 130.472 cir1
46250 61180 130.472 cir1
46250 65180 130.472 cir1
45250 61180 130.472 cir1
45250 65180 130.472 cir1
39750 59430 130.472 cir1
38750 59430 130.472 cir1
37750 59430 130.472 cir1
36750 59430 130.472 cir1
35750 59430 130.472 cir1
34750 59430 130.472 cir1
33750 59430 130.472 cir1
32750 59430 130.472 cir1
31750 59430 130.472 cir1
31750 56430 130.472 cir1
32750 56430 130.472 cir1
33750 56430 130.472 cir1
34750 56430 130.472 cir1
35750 56430 130.472 cir1
36750 56430 130.472 cir1
37750 56430 130.472 cir1
38750 56430 130.472 cir1
39750 56430 130.472 cir1
24750 62930 130.472 cir1
25750 62930 130.472 cir1
26750 62930 130.472 cir1
39000 51180 130.472 cir1
40000 51180 130.472 cir1
30000 59430 130.472 cir1
30000 55430 130.472 cir1
28000 57430 130.472 cir1
28000 59430 130.472 cir1
26000 57430 130.472 cir1
25000 57430 130.472 cir1
30500 61930 130.472 cir1
30500 62930 130.472 cir1
30500 63930 130.472 cir1
35000 61930 130.472 cir1
35000 62930 130.472 cir1
35000 63930 130.472 cir1
40500 61930 130.472 cir1
40500 62930 130.472 cir1
40500 63930 130.472 cir1
32500 53930 130.472 cir1
31500 53930 130.472 cir1
30500 53930 130.472 cir1
32500 51180 130.472 cir1
31500 51180 130.472 cir1
30500 51180 130.472 cir1
27000 58430 130.472 cir1
27000 57430 130.472 cir1
25750 65680 561.023 cir1
29000 56430 130.472 cir1
29000 60430 130.472 cir1
24500 75680 570.472 cir1
46500 75680 570.472 cir1
35500 50180 570.472 cir1
27250 52480 130.472 cir1
27250 53480 130.472 cir1
27250 51480 130.472 cir1
28250 53980 130.472 cir1
28250 52980 130.472 cir1
28250 51980 130.472 cir1
24800 50730 560.972 cir1
24800 54730 560.972 cir1
43750 52880 130.472 cir1
43750 51880 130.472 cir1
43750 53880 130.472 cir1
42750 51380 130.472 cir1
42750 52380 130.472 cir1
42750 53380 130.472 cir1
46200 54630 560.972 cir1
46200 50630 560.972 cir1
27750 68430 150.472 cir1
28750 68430 150.472 cir1
29750 68430 150.472 cir1
30750 68430 150.472 cir1
28750 74430 150.472 cir1
27750 74430 150.472 cir1
31750 68430 150.472 cir1
30750 74430 150.472 cir1
31750 74430 150.472 cir1
29750 74430 150.472 cir1
32750 68430 150.472 cir1
33750 68430 150.472 cir1
34750 68430 150.472 cir1
35750 68430 150.472 cir1
33750 74430 150.472 cir1
32750 74430 150.472 cir1
36750 68430 150.472 cir1
35750 74430 150.472 cir1
36750 74430 150.472 cir1
34750 74430 150.472 cir1
37750 68430 150.472 cir1
38750 68430 150.472 cir1
39750 68430 150.472 cir1
40750 68430 150.472 cir1
38750 74430 150.472 cir1
37750 74430 150.472 cir1
41750 68430 150.472 cir1
40750 74430 150.472 cir1
41750 74430 150.472 cir1
39750 74430 150.472 cir1
0 0 0 setrgbcolor
showpage
grestore
%%EOF
