EESchema Schematic File Version 2
LIBS:power
LIBS:device
LIBS:transistors
LIBS:conn
LIBS:linear
LIBS:regul
LIBS:74xx
LIBS:cmos4000
LIBS:adc-dac
LIBS:memory
LIBS:xilinx
LIBS:special
LIBS:microcontrollers
LIBS:dsp
LIBS:microchip
LIBS:analog_switches
LIBS:motorola
LIBS:texas
LIBS:intel
LIBS:audio
LIBS:interface
LIBS:digital-audio
LIBS:philips
LIBS:display
LIBS:cypress
LIBS:siliconi
LIBS:opto
LIBS:atmel
LIBS:contrib
LIBS:valves
LIBS:mini-z-speedmeter-cache
EELAYER 27 0
EELAYER END
$Descr A4 11693 8268
encoding utf-8
Sheet 1 1
Title ""
Date "14 nov 2014"
Rev ""
Comp ""
Comment1 ""
Comment2 ""
Comment3 ""
Comment4 ""
$EndDescr
$Comp
L 7SEGM S1
U 1 1 5447E9BA
P 9900 1700
F 0 "S1" H 9900 2350 60  0000 C CNN
F 1 "7SEGM" H 10250 2350 60  0000 C CNN
F 2 "~" H 9900 1700 60  0000 C CNN
F 3 "~" H 9900 1700 60  0000 C CNN
	1    9900 1700
	1    0    0    -1  
$EndComp
$Comp
L 7SEGM S2
U 1 1 5447EAD9
P 9900 3050
F 0 "S2" H 9900 3700 60  0000 C CNN
F 1 "7SEGM" H 10250 3700 60  0000 C CNN
F 2 "~" H 9900 3050 60  0000 C CNN
F 3 "~" H 9900 3050 60  0000 C CNN
	1    9900 3050
	1    0    0    -1  
$EndComp
$Comp
L 7SEGM S3
U 1 1 5447EADF
P 9900 4400
F 0 "S3" H 9900 5050 60  0000 C CNN
F 1 "7SEGM" H 10250 5050 60  0000 C CNN
F 2 "~" H 9900 4400 60  0000 C CNN
F 3 "~" H 9900 4400 60  0000 C CNN
	1    9900 4400
	1    0    0    -1  
$EndComp
$Comp
L PNP Q1
U 1 1 5447EB75
P 7850 2450
F 0 "Q1" H 7850 2300 60  0000 R CNN
F 1 "2N2907" H 7850 2600 60  0000 R CNN
F 2 "~" H 7850 2450 60  0000 C CNN
F 3 "~" H 7850 2450 60  0000 C CNN
	1    7850 2450
	1    0    0    -1  
$EndComp
$Comp
L PNP Q2
U 1 1 5447EB91
P 7850 3800
F 0 "Q2" H 7850 3650 60  0000 R CNN
F 1 "2N2907" H 7850 3950 60  0000 R CNN
F 2 "~" H 7850 3800 60  0000 C CNN
F 3 "~" H 7850 3800 60  0000 C CNN
	1    7850 3800
	1    0    0    -1  
$EndComp
$Comp
L PNP Q3
U 1 1 5447EB97
P 7850 5150
F 0 "Q3" H 7850 5000 60  0000 R CNN
F 1 "2N2907" H 7850 5300 60  0000 R CNN
F 2 "~" H 7850 5150 60  0000 C CNN
F 3 "~" H 7850 5150 60  0000 C CNN
	1    7850 5150
	1    0    0    -1  
$EndComp
$Comp
L VCC #PWR01
U 1 1 5447F061
P 7950 2750
F 0 "#PWR01" H 7950 2850 30  0001 C CNN
F 1 "VCC" H 7950 2850 30  0000 C CNN
F 2 "" H 7950 2750 60  0000 C CNN
F 3 "" H 7950 2750 60  0000 C CNN
	1    7950 2750
	-1   0    0    1   
$EndComp
$Comp
L VCC #PWR02
U 1 1 5447F0AE
P 7950 4100
F 0 "#PWR02" H 7950 4200 30  0001 C CNN
F 1 "VCC" H 7950 4200 30  0000 C CNN
F 2 "" H 7950 4100 60  0000 C CNN
F 3 "" H 7950 4100 60  0000 C CNN
	1    7950 4100
	-1   0    0    1   
$EndComp
$Comp
L VCC #PWR03
U 1 1 5447F0F5
P 7950 5450
F 0 "#PWR03" H 7950 5550 30  0001 C CNN
F 1 "VCC" H 7950 5550 30  0000 C CNN
F 2 "" H 7950 5450 60  0000 C CNN
F 3 "" H 7950 5450 60  0000 C CNN
	1    7950 5450
	-1   0    0    1   
$EndComp
$Comp
L R R4
U 1 1 5447F174
P 7650 1400
F 0 "R4" V 7700 1200 40  0000 C CNN
F 1 "150" V 7657 1401 40  0000 C CNN
F 2 "~" V 7580 1400 30  0000 C CNN
F 3 "~" H 7650 1400 30  0000 C CNN
	1    7650 1400
	0    -1   -1   0   
$EndComp
$Comp
L R R5
U 1 1 5447F186
P 7650 1500
F 0 "R5" V 7700 1300 40  0000 C CNN
F 1 "150" V 7657 1501 40  0000 C CNN
F 2 "~" V 7580 1500 30  0000 C CNN
F 3 "~" H 7650 1500 30  0000 C CNN
	1    7650 1500
	0    -1   -1   0   
$EndComp
$Comp
L R R6
U 1 1 5447F18C
P 7650 1600
F 0 "R6" V 7700 1400 40  0000 C CNN
F 1 "150" V 7657 1601 40  0000 C CNN
F 2 "~" V 7580 1600 30  0000 C CNN
F 3 "~" H 7650 1600 30  0000 C CNN
	1    7650 1600
	0    -1   -1   0   
$EndComp
$Comp
L R R7
U 1 1 5447F192
P 7650 1700
F 0 "R7" V 7700 1500 40  0000 C CNN
F 1 "150" V 7657 1701 40  0000 C CNN
F 2 "~" V 7580 1700 30  0000 C CNN
F 3 "~" H 7650 1700 30  0000 C CNN
	1    7650 1700
	0    -1   -1   0   
$EndComp
$Comp
L R R8
U 1 1 5447F198
P 7650 1800
F 0 "R8" V 7700 1600 40  0000 C CNN
F 1 "150" V 7657 1801 40  0000 C CNN
F 2 "~" V 7580 1800 30  0000 C CNN
F 3 "~" H 7650 1800 30  0000 C CNN
	1    7650 1800
	0    -1   -1   0   
$EndComp
$Comp
L R R9
U 1 1 5447F19E
P 7650 1900
F 0 "R9" V 7700 1700 40  0000 C CNN
F 1 "150" V 7657 1901 40  0000 C CNN
F 2 "~" V 7580 1900 30  0000 C CNN
F 3 "~" H 7650 1900 30  0000 C CNN
	1    7650 1900
	0    -1   -1   0   
$EndComp
$Comp
L R R10
U 1 1 5447F1A4
P 7650 2000
F 0 "R10" V 7700 1800 40  0000 C CNN
F 1 "150" V 7657 2001 40  0000 C CNN
F 2 "~" V 7580 2000 30  0000 C CNN
F 3 "~" H 7650 2000 30  0000 C CNN
	1    7650 2000
	0    -1   -1   0   
$EndComp
$Comp
L R R11
U 1 1 5447F1AA
P 7650 2100
F 0 "R11" V 7700 1900 40  0000 C CNN
F 1 "150" V 7657 2101 40  0000 C CNN
F 2 "~" V 7580 2100 30  0000 C CNN
F 3 "~" H 7650 2100 30  0000 C CNN
	1    7650 2100
	0    -1   -1   0   
$EndComp
$Comp
L PIC16F628A U1
U 1 1 5447F1F3
P 4900 3300
F 0 "U1" H 5200 4100 60  0000 C CNN
F 1 "PIC16F628A" H 5350 2500 60  0000 C CNN
F 2 "" H 4900 3300 60  0000 C CNN
F 3 "" H 4900 3300 60  0000 C CNN
	1    4900 3300
	1    0    0    -1  
$EndComp
$Comp
L R R1
U 1 1 5447F202
P 7300 2450
F 0 "R1" V 7380 2450 40  0000 C CNN
F 1 "1k" V 7307 2451 40  0000 C CNN
F 2 "~" V 7230 2450 30  0000 C CNN
F 3 "~" H 7300 2450 30  0000 C CNN
	1    7300 2450
	0    -1   -1   0   
$EndComp
$Comp
L R R2
U 1 1 5447F214
P 7300 3800
F 0 "R2" V 7380 3800 40  0000 C CNN
F 1 "1k" V 7307 3801 40  0000 C CNN
F 2 "~" V 7230 3800 30  0000 C CNN
F 3 "~" H 7300 3800 30  0000 C CNN
	1    7300 3800
	0    -1   -1   0   
$EndComp
$Comp
L R R3
U 1 1 5447F21A
P 7300 5150
F 0 "R3" V 7380 5150 40  0000 C CNN
F 1 "1k" V 7307 5151 40  0000 C CNN
F 2 "~" V 7230 5150 30  0000 C CNN
F 3 "~" H 7300 5150 30  0000 C CNN
	1    7300 5150
	0    -1   -1   0   
$EndComp
Text Label 7150 1400 0    60   ~ 0
SEG_A
Text Label 7150 1500 0    60   ~ 0
SEG_B
Text Label 7150 1600 0    60   ~ 0
SEG_C
Text Label 7150 1700 0    60   ~ 0
SEG_D
Text Label 7150 1800 0    60   ~ 0
SEG_E
Text Label 7150 1900 0    60   ~ 0
SEG_F
Text Label 7150 2000 0    60   ~ 0
SEG_G
Text Label 7150 2100 0    60   ~ 0
SEG_DP
Entry Wire Line
	6850 1500 6950 1400
Entry Wire Line
	6850 1600 6950 1500
Entry Wire Line
	6850 1700 6950 1600
Entry Wire Line
	6850 1800 6950 1700
Entry Wire Line
	6850 1900 6950 1800
Entry Wire Line
	6850 2000 6950 1900
Entry Wire Line
	6850 2100 6950 2000
Entry Wire Line
	6850 2200 6950 2100
Entry Wire Line
	6850 2550 6950 2450
Entry Wire Line
	6850 3900 6950 3800
Entry Wire Line
	6850 5250 6950 5150
Entry Wire Line
	3250 2950 3350 2850
Entry Wire Line
	3250 3250 3350 3150
Entry Wire Line
	6750 3550 6850 3450
Entry Wire Line
	6750 3650 6850 3550
Entry Wire Line
	6750 3750 6850 3650
Entry Wire Line
	6750 3850 6850 3750
Entry Wire Line
	6750 3950 6850 3850
$Comp
L VCC #PWR04
U 1 1 5447FD53
P 3650 2650
F 0 "#PWR04" H 3650 2750 30  0001 C CNN
F 1 "VCC" H 3650 2750 30  0000 C CNN
F 2 "" H 3650 2650 60  0000 C CNN
F 3 "" H 3650 2650 60  0000 C CNN
	1    3650 2650
	0    -1   -1   0   
$EndComp
$Comp
L GND #PWR05
U 1 1 5447FDB6
P 3850 4050
F 0 "#PWR05" H 3850 4050 30  0001 C CNN
F 1 "GND" H 3850 3980 30  0001 C CNN
F 2 "" H 3850 4050 60  0000 C CNN
F 3 "" H 3850 4050 60  0000 C CNN
	1    3850 4050
	1    0    0    -1  
$EndComp
Text Label 3550 2850 0    60   ~ 0
SEG_A
Text Label 3550 3150 0    60   ~ 0
SEG_B
Entry Wire Line
	6750 2950 6850 2850
Text Label 6400 3550 0    60   ~ 0
SEG_C
Text Label 6400 3650 0    60   ~ 0
SEG_D
Text Label 6400 3750 0    60   ~ 0
SEG_E
Text Label 6400 3850 0    60   ~ 0
SEG_F
Text Label 6400 3950 0    60   ~ 0
SEG_G
Text Label 6400 2950 0    60   ~ 0
SEG_DP
Text GLabel 6300 2650 2    60   Input ~ 0
SENSOR_1
Text GLabel 6300 2750 2    60   Input ~ 0
SENSOR_2
Text GLabel 6300 2850 2    60   Input ~ 0
UART_TX
Text Label 7000 2450 0    60   ~ 0
DIG_U
Text Label 7000 3800 0    60   ~ 0
DIG_D
Text Label 7000 5150 0    60   ~ 0
DIG_C
Entry Wire Line
	6750 3150 6850 3050
Entry Wire Line
	6750 3250 6850 3150
Entry Wire Line
	6750 3350 6850 3250
Text Label 6400 3150 0    60   ~ 0
DIG_U
Text Label 6400 3250 0    60   ~ 0
DIG_D
Text Label 6400 3350 0    60   ~ 0
DIG_C
Text GLabel 6300 3050 2    60   Input ~ 0
IR_OUT
Text GLabel 3800 3500 0    60   Input ~ 0
LOWBAT
$Comp
L C C1
U 1 1 5447FC63
P 3250 1450
F 0 "C1" H 3250 1550 40  0000 L CNN
F 1 "100n" H 3256 1365 40  0000 L CNN
F 2 "~" H 3288 1300 30  0000 C CNN
F 3 "~" H 3250 1450 60  0000 C CNN
	1    3250 1450
	1    0    0    -1  
$EndComp
$Comp
L CAPAPOL C2
U 1 1 5447FC84
P 3500 1450
F 0 "C2" H 3550 1550 40  0000 L CNN
F 1 "100u" H 3550 1350 40  0000 L CNN
F 2 "~" H 3600 1300 30  0000 C CNN
F 3 "~" H 3500 1450 300 0000 C CNN
	1    3500 1450
	1    0    0    -1  
$EndComp
$Comp
L GND #PWR06
U 1 1 5447FD69
P 3250 1850
F 0 "#PWR06" H 3250 1850 30  0001 C CNN
F 1 "GND" H 3250 1780 30  0001 C CNN
F 2 "" H 3250 1850 60  0000 C CNN
F 3 "" H 3250 1850 60  0000 C CNN
	1    3250 1850
	1    0    0    -1  
$EndComp
$Comp
L VCC #PWR07
U 1 1 5447FD78
P 3250 1050
F 0 "#PWR07" H 3250 1150 30  0001 C CNN
F 1 "VCC" H 3250 1150 30  0000 C CNN
F 2 "" H 3250 1050 60  0000 C CNN
F 3 "" H 3250 1050 60  0000 C CNN
	1    3250 1050
	1    0    0    -1  
$EndComp
$Comp
L NPN Q4
U 1 1 5447FEE3
P 5300 1400
F 0 "Q4" H 5300 1250 50  0000 R CNN
F 1 "NPN" H 5300 1550 50  0000 R CNN
F 2 "~" H 5300 1400 60  0000 C CNN
F 3 "~" H 5300 1400 60  0000 C CNN
	1    5300 1400
	1    0    0    -1  
$EndComp
$Comp
L NPN Q5
U 1 1 5447FEF0
P 5600 1700
F 0 "Q5" H 5600 1550 50  0000 R CNN
F 1 "NPN" H 5600 1850 50  0000 R CNN
F 2 "~" H 5600 1700 60  0000 C CNN
F 3 "~" H 5600 1700 60  0000 C CNN
	1    5600 1700
	1    0    0    -1  
$EndComp
$Comp
L GND #PWR08
U 1 1 5447FFD5
P 5700 2000
F 0 "#PWR08" H 5700 2000 30  0001 C CNN
F 1 "GND" H 5700 1930 30  0001 C CNN
F 2 "" H 5700 2000 60  0000 C CNN
F 3 "" H 5700 2000 60  0000 C CNN
	1    5700 2000
	1    0    0    -1  
$EndComp
$Comp
L R R12
U 1 1 5447FFE4
P 4800 1400
F 0 "R12" V 4880 1400 40  0000 C CNN
F 1 "1k" V 4807 1401 40  0000 C CNN
F 2 "~" V 4730 1400 30  0000 C CNN
F 3 "~" H 4800 1400 30  0000 C CNN
	1    4800 1400
	0    -1   -1   0   
$EndComp
Text GLabel 4500 1400 0    60   Input ~ 0
IR_OUT
$Comp
L VCC #PWR09
U 1 1 544801D0
P 5850 1100
F 0 "#PWR09" H 5850 1200 30  0001 C CNN
F 1 "VCC" H 5850 1200 30  0000 C CNN
F 2 "" H 5850 1100 60  0000 C CNN
F 3 "" H 5850 1100 60  0000 C CNN
	1    5850 1100
	0    -1   -1   0   
$EndComp
$Comp
L GND #PWR010
U 1 1 54480326
P 1650 1500
F 0 "#PWR010" H 1650 1500 30  0001 C CNN
F 1 "GND" H 1650 1430 30  0001 C CNN
F 2 "" H 1650 1500 60  0000 C CNN
F 3 "" H 1650 1500 60  0000 C CNN
	1    1650 1500
	0    1    1    0   
$EndComp
Text GLabel 1600 1600 0    60   Input ~ 0
SENSOR_1
Text GLabel 1600 1300 0    60   Input ~ 0
SENSOR_2
$Comp
L CONN_2 P2
U 1 1 544805CC
P 2050 2150
F 0 "P2" V 2000 2150 40  0000 C CNN
F 1 "UART_OUT" V 2100 2150 40  0000 C CNN
F 2 "" H 2050 2150 60  0000 C CNN
F 3 "" H 2050 2150 60  0000 C CNN
	1    2050 2150
	1    0    0    -1  
$EndComp
$Comp
L GND #PWR011
U 1 1 544805D7
P 1600 2250
F 0 "#PWR011" H 1600 2250 30  0001 C CNN
F 1 "GND" H 1600 2180 30  0001 C CNN
F 2 "" H 1600 2250 60  0000 C CNN
F 3 "" H 1600 2250 60  0000 C CNN
	1    1600 2250
	0    1    1    0   
$EndComp
Text GLabel 1550 2050 0    60   Input ~ 0
UART_TX
$Comp
L PWR_FLAG #FLG012
U 1 1 54480789
P 3500 1050
F 0 "#FLG012" H 3500 1145 30  0001 C CNN
F 1 "PWR_FLAG" H 3500 1230 30  0000 C CNN
F 2 "" H 3500 1050 60  0000 C CNN
F 3 "" H 3500 1050 60  0000 C CNN
	1    3500 1050
	1    0    0    -1  
$EndComp
$Comp
L PWR_FLAG #FLG013
U 1 1 5448081D
P 3500 1850
F 0 "#FLG013" H 3500 1945 30  0001 C CNN
F 1 "PWR_FLAG" H 3500 2030 30  0000 C CNN
F 2 "" H 3500 1850 60  0000 C CNN
F 3 "" H 3500 1850 60  0000 C CNN
	1    3500 1850
	-1   0    0    1   
$EndComp
$Comp
L CONN_3 K1
U 1 1 54480A18
P 2300 3050
F 0 "K1" V 2250 3050 50  0000 C CNN
F 1 "POWER" V 2350 3050 40  0000 C CNN
F 2 "" H 2300 3050 60  0000 C CNN
F 3 "" H 2300 3050 60  0000 C CNN
	1    2300 3050
	1    0    0    -1  
$EndComp
$Comp
L VCC #PWR014
U 1 1 54480A3C
P 1350 2950
F 0 "#PWR014" H 1350 3050 30  0001 C CNN
F 1 "VCC" H 1350 3050 30  0000 C CNN
F 2 "" H 1350 2950 60  0000 C CNN
F 3 "" H 1350 2950 60  0000 C CNN
	1    1350 2950
	0    -1   -1   0   
$EndComp
$Comp
L GND #PWR015
U 1 1 54480A42
P 1750 3150
F 0 "#PWR015" H 1750 3150 30  0001 C CNN
F 1 "GND" H 1750 3080 30  0001 C CNN
F 2 "" H 1750 3150 60  0000 C CNN
F 3 "" H 1750 3150 60  0000 C CNN
	1    1750 3150
	0    1    1    0   
$EndComp
Text GLabel 1350 3450 0    60   Input ~ 0
LOWBAT
$Comp
L VCC #PWR016
U 1 1 54480317
P 1650 1400
F 0 "#PWR016" H 1650 1500 30  0001 C CNN
F 1 "VCC" H 1650 1500 30  0000 C CNN
F 2 "" H 1650 1400 60  0000 C CNN
F 3 "" H 1650 1400 60  0000 C CNN
	1    1650 1400
	0    -1   -1   0   
$EndComp
$Comp
L R R13
U 1 1 545176DE
P 1450 3200
F 0 "R13" V 1530 3200 40  0000 C CNN
F 1 "10k" V 1457 3201 40  0000 C CNN
F 2 "~" V 1380 3200 30  0000 C CNN
F 3 "~" H 1450 3200 30  0000 C CNN
	1    1450 3200
	-1   0    0    1   
$EndComp
NoConn ~ 1700 1700
NoConn ~ 1700 1200
NoConn ~ 5950 1000
NoConn ~ 5950 1300
NoConn ~ 5950 1400
NoConn ~ 5950 900 
Wire Wire Line
	9150 1300 9050 1300
Wire Wire Line
	9150 2650 9050 2650
Wire Wire Line
	9050 2650 9050 3550
Wire Wire Line
	9150 4000 9050 4000
Wire Wire Line
	9050 4000 9050 4900
Wire Wire Line
	9150 1400 7900 1400
Wire Wire Line
	9150 2750 8950 2750
Wire Wire Line
	8950 1400 8950 4100
Connection ~ 8950 1400
Wire Wire Line
	8950 4100 9150 4100
Connection ~ 8950 2750
Wire Wire Line
	9150 1500 7900 1500
Wire Wire Line
	9150 2850 8850 2850
Wire Wire Line
	8850 1500 8850 4200
Connection ~ 8850 1500
Wire Wire Line
	8850 4200 9150 4200
Connection ~ 8850 2850
Wire Wire Line
	9150 1600 7900 1600
Wire Wire Line
	9150 1700 7900 1700
Wire Wire Line
	9150 1800 7900 1800
Wire Wire Line
	9150 1900 7900 1900
Wire Wire Line
	9150 2000 7900 2000
Wire Wire Line
	9150 2100 7900 2100
Wire Wire Line
	9150 4300 8750 4300
Wire Wire Line
	8750 4300 8750 1600
Connection ~ 8750 1600
Wire Wire Line
	9150 2950 8750 2950
Connection ~ 8750 2950
Wire Wire Line
	9150 3050 8650 3050
Wire Wire Line
	8650 1700 8650 4400
Connection ~ 8650 1700
Wire Wire Line
	8650 4400 9150 4400
Connection ~ 8650 3050
Wire Wire Line
	9150 3150 8550 3150
Wire Wire Line
	8550 1800 8550 4500
Connection ~ 8550 1800
Wire Wire Line
	8550 4500 9150 4500
Connection ~ 8550 3150
Wire Wire Line
	9150 3250 8450 3250
Wire Wire Line
	8450 1900 8450 4600
Connection ~ 8450 1900
Wire Wire Line
	8450 4600 9150 4600
Connection ~ 8450 3250
Wire Wire Line
	9150 3350 8350 3350
Wire Wire Line
	8350 2000 8350 4700
Connection ~ 8350 2000
Wire Wire Line
	8350 4700 9150 4700
Connection ~ 8350 3350
Wire Wire Line
	9150 3450 8250 3450
Wire Wire Line
	8250 2100 8250 4800
Connection ~ 8250 2100
Wire Wire Line
	8250 4800 9150 4800
Connection ~ 8250 3450
Wire Wire Line
	7950 2200 7950 2250
Wire Wire Line
	7950 3550 7950 3600
Wire Wire Line
	7950 4900 7950 4950
Wire Wire Line
	7950 2750 7950 2650
Wire Wire Line
	7950 4000 7950 4100
Wire Wire Line
	7950 5450 7950 5350
Wire Wire Line
	7550 2450 7650 2450
Wire Wire Line
	7550 3800 7650 3800
Wire Wire Line
	7550 5150 7650 5150
Wire Wire Line
	6950 1400 7400 1400
Wire Wire Line
	7400 1500 6950 1500
Wire Wire Line
	6950 1600 7400 1600
Wire Wire Line
	7400 1700 6950 1700
Wire Wire Line
	7400 1800 6950 1800
Wire Wire Line
	6950 1900 7400 1900
Wire Wire Line
	7400 2000 6950 2000
Wire Wire Line
	7400 2100 6950 2100
Wire Wire Line
	7050 2450 6950 2450
Wire Wire Line
	7050 3800 6950 3800
Wire Wire Line
	7050 5150 6950 5150
Wire Bus Line
	6850 1400 6850 5350
Wire Bus Line
	6850 5350 3250 5350
Wire Bus Line
	3250 5350 3250 2800
Wire Wire Line
	6200 3550 6750 3550
Wire Wire Line
	6200 3650 6750 3650
Wire Wire Line
	6200 3750 6750 3750
Wire Wire Line
	6200 3850 6750 3850
Wire Wire Line
	6200 3950 6750 3950
Wire Wire Line
	3350 2850 3850 2850
Wire Wire Line
	3350 3150 3850 3150
Wire Wire Line
	3650 2650 3850 2650
Wire Wire Line
	3850 3950 3850 4050
Wire Wire Line
	6300 2650 6200 2650
Wire Wire Line
	6300 2750 6200 2750
Wire Wire Line
	6200 2950 6750 2950
Wire Wire Line
	6750 3350 6200 3350
Wire Wire Line
	6200 3250 6750 3250
Wire Wire Line
	6750 3150 6200 3150
Wire Wire Line
	6300 3050 6200 3050
Wire Wire Line
	3800 3500 3850 3500
Wire Wire Line
	3250 1050 3250 1250
Wire Wire Line
	3250 1150 3500 1150
Wire Wire Line
	3500 1050 3500 1250
Wire Wire Line
	3500 1650 3500 1850
Wire Wire Line
	3500 1750 3250 1750
Wire Wire Line
	3250 1650 3250 1850
Connection ~ 3250 1150
Connection ~ 3250 1750
Wire Wire Line
	5400 1700 5400 1600
Wire Wire Line
	5400 1200 5950 1200
Wire Wire Line
	5700 1200 5700 1500
Wire Wire Line
	5050 1400 5100 1400
Wire Wire Line
	4500 1400 4550 1400
Wire Wire Line
	5700 1900 5700 2000
Connection ~ 5700 1200
Wire Wire Line
	1600 1600 1700 1600
Wire Wire Line
	1700 1300 1600 1300
Wire Wire Line
	1650 1400 1700 1400
Wire Wire Line
	1700 1500 1650 1500
Wire Wire Line
	1600 2250 1700 2250
Wire Wire Line
	1550 2050 1700 2050
Connection ~ 3500 1150
Connection ~ 3500 1750
Wire Wire Line
	1750 3150 1950 3150
Wire Wire Line
	1600 3050 1950 3050
Wire Wire Line
	1350 2950 1950 2950
Connection ~ 1450 2950
Wire Wire Line
	1600 3450 1600 3050
Wire Wire Line
	1350 3450 1600 3450
Connection ~ 1450 3450
Wire Wire Line
	6300 2850 6200 2850
$Comp
L CONN_1 P4
U 1 1 54529BAB
P 2350 3750
F 0 "P4" H 2430 3750 40  0000 L CNN
F 1 "CONN_1" H 2350 3805 30  0001 C CNN
F 2 "" H 2350 3750 60  0000 C CNN
F 3 "" H 2350 3750 60  0000 C CNN
	1    2350 3750
	1    0    0    -1  
$EndComp
NoConn ~ 2200 3750
$Comp
L CONN_8 P3
U 1 1 54536FB4
P 6300 1250
F 0 "P3" V 6250 1250 60  0000 C CNN
F 1 "IR_LEDS" V 6350 1250 60  0000 C CNN
F 2 "" H 6300 1250 60  0000 C CNN
F 3 "" H 6300 1250 60  0000 C CNN
	1    6300 1250
	1    0    0    -1  
$EndComp
$Comp
L GND #PWR017
U 1 1 54536FD5
P 5900 1800
F 0 "#PWR017" H 5900 1800 30  0001 C CNN
F 1 "GND" H 5900 1730 30  0001 C CNN
F 2 "" H 5900 1800 60  0000 C CNN
F 3 "" H 5900 1800 60  0000 C CNN
	1    5900 1800
	1    0    0    -1  
$EndComp
Wire Wire Line
	5900 1500 5900 1800
Wire Wire Line
	5950 1600 5900 1600
$Comp
L CONN_8 P1
U 1 1 545371DA
P 2050 1550
F 0 "P1" V 2000 1550 60  0000 C CNN
F 1 "SENSORS" V 2100 1550 60  0000 C CNN
F 2 "" H 2050 1550 60  0000 C CNN
F 3 "" H 2050 1550 60  0000 C CNN
	1    2050 1550
	1    0    0    -1  
$EndComp
$Comp
L GND #PWR018
U 1 1 545371F4
P 1650 1800
F 0 "#PWR018" H 1650 1800 30  0001 C CNN
F 1 "GND" H 1650 1730 30  0001 C CNN
F 2 "" H 1650 1800 60  0000 C CNN
F 3 "" H 1650 1800 60  0000 C CNN
	1    1650 1800
	0    1    1    0   
$EndComp
Wire Wire Line
	1650 1800 1700 1800
$Comp
L GND #PWR019
U 1 1 54537284
P 1650 1900
F 0 "#PWR019" H 1650 1900 30  0001 C CNN
F 1 "GND" H 1650 1830 30  0001 C CNN
F 2 "" H 1650 1900 60  0000 C CNN
F 3 "" H 1650 1900 60  0000 C CNN
	1    1650 1900
	0    1    -1   0   
$EndComp
Wire Wire Line
	1650 1900 1700 1900
Wire Wire Line
	9050 1300 9050 2200
Wire Wire Line
	9050 2200 7950 2200
Wire Wire Line
	9050 3550 7950 3550
Wire Wire Line
	9050 4900 7950 4900
NoConn ~ 9150 4900
NoConn ~ 9150 3550
NoConn ~ 9150 2200
$Comp
L CONN_1 P5
U 1 1 54537550
P 2350 3850
F 0 "P5" H 2430 3850 40  0000 L CNN
F 1 "CONN_1" H 2350 3905 30  0001 C CNN
F 2 "" H 2350 3850 60  0000 C CNN
F 3 "" H 2350 3850 60  0000 C CNN
	1    2350 3850
	1    0    0    -1  
$EndComp
$Comp
L CONN_1 P6
U 1 1 54537556
P 2350 3950
F 0 "P6" H 2430 3950 40  0000 L CNN
F 1 "CONN_1" H 2350 4005 30  0001 C CNN
F 2 "" H 2350 3950 60  0000 C CNN
F 3 "" H 2350 3950 60  0000 C CNN
	1    2350 3950
	1    0    0    -1  
$EndComp
$Comp
L CONN_1 P7
U 1 1 5453755C
P 2350 4050
F 0 "P7" H 2430 4050 40  0000 L CNN
F 1 "CONN_1" H 2350 4105 30  0001 C CNN
F 2 "" H 2350 4050 60  0000 C CNN
F 3 "" H 2350 4050 60  0000 C CNN
	1    2350 4050
	1    0    0    -1  
$EndComp
NoConn ~ 2200 3850
NoConn ~ 2200 3950
NoConn ~ 2200 4050
Wire Wire Line
	5900 1500 5950 1500
Connection ~ 5900 1600
Wire Wire Line
	5850 1100 5950 1100
$EndSCHEMATC
