PCBNEW-LibModule-V1  ven. 14 nov. 2014 22:38:12 CET
# encoding utf-8
Units mm
$INDEX
RJ12_E_PLASTIC
TDSR515
$EndINDEX
$MODULE RJ12_E_PLASTIC
Po 0 0 0 15 54667107 00000000 ~~
Li RJ12_E_PLASTIC
Sc 0
AR /54536FB4
Op 0 0 0
T0 0 0 1.524 1.524 0 0.3048 N V 21 N "P3"
T1 0 -2.54 1.524 1.524 0 0.3048 N V 21 N "IR_LEDS"
DS -6.858 -10.16 -6.858 10.033 0.381 21
DS 6.604 10.033 6.604 -10.16 0.381 21
DS -6.858 10.033 6.604 10.033 0.381 21
DS 5.842 -10.16 6.604 -10.16 0.381 21
DS -6.858 -10.16 5.842 -10.16 0.381 21
$PAD
Sh "4" C 1.524 1.524 0 0 0
Dr 0.8128 0 0
At STD N 00E0FFFF
Ne 3 "VCC"
Po 0.508 -6.35
$EndPAD
$PAD
Sh "2" C 1.524 1.524 0 0 0
Dr 0.8128 0 0
At STD N 00E0FFFF
Ne 0 ""
Po -2.032 -6.35
$EndPAD
$PAD
Sh "6" C 1.524 1.524 0 0 0
Dr 0.8128 0 0
At STD N 00E0FFFF
Ne 0 ""
Po 3.048 -6.35
$EndPAD
$PAD
Sh "1" C 1.524 1.524 0 0 0
Dr 0.8128 0 0
At STD N 00E0FFFF
Ne 0 ""
Po -3.302 -8.89
$EndPAD
$PAD
Sh "3" C 1.524 1.524 0 0 0
Dr 0.8128 0 0
At STD N 00E0FFFF
Ne 2 "N-0000033"
Po -0.762 -8.89
$EndPAD
$PAD
Sh "5" C 1.524 1.524 0 0 0
Dr 0.8128 0 0
At STD N 00E0FFFF
Ne 0 ""
Po 1.778 -8.89
$EndPAD
$PAD
Sh "8" C 2.99974 2.99974 0 0 0
Dr 2.99974 0 0
At STD N 00E0FFFF
Ne 1 "GND"
Po 4.953 -0.127
.ZoneConnection 2
$EndPAD
$PAD
Sh "7" C 2.99974 2.99974 0 0 0
Dr 2.99974 0 0
At STD N 00E0FFFF
Ne 1 "GND"
Po -5.207 -0.127
.ZoneConnection 2
$EndPAD
$EndMODULE RJ12_E_PLASTIC
$MODULE TDSR515
Po 0 0 0 15 54667521 00000000 ~~
Li TDSR515
Cd 7 segments display
Kw DISPLAY
Sc 0
AR /5447E9BA
Op 0 0 0
T0 0 -9.652 1.778 1.143 0 0.3048 N V 21 N "S1"
T1 0 10.16 1.778 1.016 0 0.254 N V 21 N "7SEGM"
DS 6.35 7.747 -6.35 7.747 0.15 21
DS -6.35 -10.287 6.35 -10.287 0.15 21
DS -6.35 6.858 -6.35 -9.398 0.3048 21
DS 6.35 -9.398 6.35 6.858 0.3048 21
DS -0.635 -7.62 3.81 -7.62 0.381 21
DS 3.175 -1.905 4.445 -6.985 0.381 21
DS -2.54 -1.905 -1.27 -6.985 0.381 21
DS -3.556 5.207 0.889 5.207 0.381 21
DS -2.921 -0.635 -4.191 4.445 0.381 21
DS 2.794 -0.381 1.524 4.699 0.381 21
DS -1.651 -1.27 2.413 -1.27 0.381 21
DC 3.556 5.08 4.191 5.08 0.381 21
$PAD
Sh "1" C 1.8 1.8 0 0 0
Dr 0.9144 0 0
At STD N 00E0FFFF
Ne 2 "N-0000012"
Po -5.08 6.35
$EndPAD
$PAD
Sh "2" C 1.8 1.8 0 0 0
Dr 0.9144 0 0
At STD N 00E0FFFF
Ne 3 "N-0000013"
Po -2.54 6.35
$EndPAD
$PAD
Sh "3" C 1.8 1.8 0 0 0
Dr 0.9144 0 0
At STD N 00E0FFFF
Ne 5 "N-0000036"
Po 0 6.35
$EndPAD
$PAD
Sh "4" C 1.8 1.8 0 0 0
Dr 0.9144 0 0
At STD N 00E0FFFF
Ne 4 "N-0000014"
Po 2.54 6.35
$EndPAD
$PAD
Sh "9" C 1.8 1.8 0 0 0
Dr 0.9144 0 0
At STD N 00E0FFFF
Ne 1 "N-0000011"
Po -2.54 -8.89
$EndPAD
$PAD
Sh "10" C 1.8 1.8 0 0 0
Dr 0.9144 0 0
At STD N 00E0FFFF
Ne 7 "N-000006"
Po -5.08 -8.89
$EndPAD
$PAD
Sh "5" C 1.8 1.8 0 0 0
Dr 0.9144 0 0
At STD N 00E0FFFF
Ne 6 "N-000005"
Po 5.08 6.35
$EndPAD
$PAD
Sh "7" C 1.8 1.8 0 0 0
Dr 0.9144 0 0
At STD N 00E0FFFF
Ne 9 "N-000008"
Po 2.54 -8.89
$EndPAD
$PAD
Sh "6" C 1.8 1.8 0 0 0
Dr 0.9144 0 0
At STD N 00E0FFFF
Ne 8 "N-000007"
Po 5.08 -8.89
$EndPAD
$PAD
Sh "8" C 1.8 1.8 0 0 0
Dr 0.9144 0 0
At STD N 00E0FFFF
Ne 0 ""
Po 0 -8.89
$EndPAD
$EndMODULE TDSR515
$EndLIBRARY
